<?xml version="1.0" encoding="UTF-8" standalone="no"?>
<svg
   xmlns:dc="http://purl.org/dc/elements/1.1/"
   xmlns:cc="http://creativecommons.org/ns#"
   xmlns:rdf="http://www.w3.org/1999/02/22-rdf-syntax-ns#"
   xmlns:svg="http://www.w3.org/2000/svg"
   xmlns="http://www.w3.org/2000/svg"
   width="3.3787301mm"
   height="4.34446mm"
   viewBox="0 0 3.3787301 4.34446"
   version="1.1"
   id="svg10333">
  <defs
     id="defs10327" />
  <metadata
     id="metadata10330">
    <rdf:RDF>
      <cc:Work
         rdf:about="">
        <dc:format>image/svg+xml</dc:format>
        <dc:type
           rdf:resource="http://purl.org/dc/dcmitype/StillImage" />
        <dc:title></dc:title>
      </cc:Work>
    </rdf:RDF>
  </metadata>
  <g
     id="layer1"
     transform="translate(-396.69754,-300.87539)">
    <path
       style="fill:#000000;fill-opacity:1;stroke:none;stroke-width:0.99999994"
       d="M 3.1894531,0 C 1.4394563,0 0,1.4294405 0,3.1894531 V 13.230469 c 0,1.749997 1.4294405,3.189453 3.1894531,3.189453 1.7600126,0 3.1914063,-1.439456 3.1914063,-3.189453 V 3.1894531 C 6.3808594,1.4394563 4.9494657,0 3.1894531,0 Z m 6.390625,0 C 7.8300813,0 6.390625,1.4294405 6.390625,3.1894531 V 13.230469 c 0,1.749997 1.4294405,3.189453 3.1894531,3.189453 1.7499969,0 3.1894529,-1.439456 3.1894529,-3.189453 V 3.1894531 C 12.769531,1.4394563 11.340091,0 9.5800781,0 Z"
       transform="matrix(0.26458333,0,0,0.26458333,396.69754,300.87539)"
       id="path5980" />
  </g>
</svg>
