<?xml version="1.0" encoding="UTF-8" standalone="no"?>
<svg
   xmlns:dc="http://purl.org/dc/elements/1.1/"
   xmlns:cc="http://creativecommons.org/ns#"
   xmlns:rdf="http://www.w3.org/1999/02/22-rdf-syntax-ns#"
   xmlns:svg="http://www.w3.org/2000/svg"
   xmlns="http://www.w3.org/2000/svg"
   id="svg6788"
   version="1.1"
   viewBox="0 0 6.0485353 5.9641223"
   height="5.9641223mm"
   width="6.0485353mm">
  <defs
     id="defs6782" />
  <metadata
     id="metadata6785">
    <rdf:RDF>
      <cc:Work
         rdf:about="">
        <dc:format>image/svg+xml</dc:format>
        <dc:type
           rdf:resource="http://purl.org/dc/dcmitype/StillImage" />
        <dc:title></dc:title>
      </cc:Work>
    </rdf:RDF>
  </metadata>
  <g
     transform="translate(-161.77335,-171.55365)"
     id="layer1">
    <path
       style="stroke-width:0.26458332"
       d="m 165.12306,176.02003 c 0.57414,2.6326 -3.43959,1.35202 -1.44727,-0.46038 -1.99232,1.81504 -2.8919,-2.30187 -0.32544,-1.48431 -2.56646,-0.81756 0.54769,-3.6539 1.12183,-1.02394 -0.57414,-2.6326 3.43958,-1.35202 1.44727,0.46038 1.99231,-1.81504 2.8919,2.30187 0.32544,1.48431 2.56646,0.81756 -0.54769,3.6539 -1.12183,1.02394 z"
       id="path5950" />
    <path
       id="path7339"
       d="m 165.12306,176.02003 c 0.57414,2.6326 -3.43959,1.35202 -1.44727,-0.46038 -1.99232,1.81504 -2.8919,-2.30187 -0.32544,-1.48431 -2.56646,-0.81756 0.54769,-3.6539 1.12183,-1.02394 -0.57414,-2.6326 3.43958,-1.35202 1.44727,0.46038 1.99231,-1.81504 2.8919,2.30187 0.32544,1.48431 2.56646,0.81756 -0.54769,3.6539 -1.12183,1.02394 z"
       style="stroke-width:0.26458332" />
  </g>
</svg>
