<?xml version="1.0" encoding="UTF-8" standalone="no"?>
<!-- Created with Inkscape (http://www.inkscape.org/) -->

<svg
   xmlns:dc="http://purl.org/dc/elements/1.1/"
   xmlns:cc="http://creativecommons.org/ns#"
   xmlns:rdf="http://www.w3.org/1999/02/22-rdf-syntax-ns#"
   xmlns:svg="http://www.w3.org/2000/svg"
   xmlns="http://www.w3.org/2000/svg"
   xmlns:sodipodi="http://sodipodi.sourceforge.net/DTD/sodipodi-0.dtd"
   xmlns:inkscape="http://www.inkscape.org/namespaces/inkscape"
   id="svg2"
   version="1.1"
   inkscape:version="0.91 r13725"
   width="291.25"
   height="252.5"
   viewBox="0 0 291.25 252.5"
   sodipodi:docname="arsmusica.jpg.svg">
  <metadata
     id="metadata8">
    <rdf:RDF>
      <cc:Work
         rdf:about="">
        <dc:format>image/svg+xml</dc:format>
        <dc:type
           rdf:resource="http://purl.org/dc/dcmitype/StillImage" />
        <dc:title />
      </cc:Work>
    </rdf:RDF>
  </metadata>
  <defs
     id="defs6" />
  <sodipodi:namedview
     pagecolor="#ffffff"
     bordercolor="#666666"
     borderopacity="1"
     objecttolerance="10"
     gridtolerance="10"
     guidetolerance="10"
     inkscape:pageopacity="0"
     inkscape:pageshadow="2"
     inkscape:window-width="1366"
     inkscape:window-height="669"
     id="namedview4"
     showgrid="false"
     inkscape:zoom="2.4571163"
     inkscape:cx="74.810281"
     inkscape:cy="126.25"
     inkscape:window-x="0"
     inkscape:window-y="28"
     inkscape:window-maximized="1"
     inkscape:current-layer="g4174" />
  <g
     id="g4174"
     transform="translate(0.40697935,3.6968294e-7)">
    <path
       style="fill:#000000"
       d="m 83.75,223.54424 c 0,-2.20927 -0.233264,-2.23782 -3.687925,-0.45134 -4.758879,2.46091 -10.605217,2.43539 -13.097789,-0.0571 C 65.491149,221.56257 65,218.45261 65,210.59782 c 0,-8.65615 -0.37959,-10.69468 -2.1875,-11.74769 -1.724104,-1.0042 -1.790304,-1.28578 -0.3125,-1.32919 1.03125,-0.0302 3.140625,-0.39425 4.6875,-0.8088 C 69.958411,195.96956 70,196.13247 70,207.72921 70,220.30407 70.885636,222.5 75.957176,222.5 c 6.673071,0 7.792824,-1.79353 7.792824,-12.48186 0,-8.10407 -0.395726,-10.1244 -2.1875,-11.16801 -1.724104,-1.0042 -1.790304,-1.28578 -0.3125,-1.32919 1.03125,-0.0302 3.140625,-0.39425 4.6875,-0.8088 2.781428,-0.74539 2.8125,-0.61357 2.8125,11.93235 0,11.61414 0.214781,12.76552 2.541879,13.62637 2.14702,0.79424 1.758667,1.14935 -2.5,2.28606 C 84.208701,225.78024 83.75,225.68811 83.75,223.54424 Z M 12.221867,223.05412 C 14.693265,221.32309 15,220.02011 15,211.25289 15,205.83245 14.4375,201.0499 13.75,200.625 c -1.904436,-1.17701 -1.496268,-2.74655 0.9375,-3.60501 1.203125,-0.42438 2.890625,-1.09937 3.75,-1.49997 0.975255,-0.45461 1.5625,0.22253 1.5625,1.80168 0,2.36142 0.229102,2.41052 3.4375,0.73687 4.466467,-2.32993 9.072376,-2.28756 12.502516,0.115 2.47196,1.73143 3.117846,1.73143 6.466058,0 2.045877,-1.05796 5.403313,-1.92357 7.460971,-1.92357 5.815582,0 7.632955,3.74099 7.632955,15.71211 0,9.29677 0.237911,10.27059 2.8125,11.51228 2.373714,1.14479 1.653883,1.36961 -4.613912,1.44101 -6.294653,0.0718 -7.095844,-0.15711 -5.257279,-1.50151 1.819178,-1.33021 2.109807,-3.29219 1.801412,-12.16097 -0.355902,-10.23498 -0.476585,-10.61303 -3.754859,-11.76248 -2.295722,-0.80494 -4.410312,-0.72143 -6.5625,0.25917 -3.036752,1.38364 -3.175362,1.90905 -3.175362,12.03648 0,8.76671 0.37657,10.80902 2.1875,11.86378 1.676006,0.97619 0.579947,1.2741 -4.6875,1.2741 -5.267447,0 -6.363506,-0.29791 -4.6875,-1.2741 3.02546,-1.76216 3.202529,-19.95627 0.223214,-22.93558 -2.266765,-2.26677 -5.899223,-2.52669 -9.36789,-0.67032 C 20.32145,201.16592 20,202.73645 20,211.85686 c 0,8.69931 0.378404,10.73932 2.1875,11.79301 1.664628,0.96957 0.40301,1.28319 -5.278132,1.31212 -7.1089945,0.0363 -7.33292,-0.055 -4.687501,-1.90787 z m 85.590633,1.11803 c -0.859375,-0.34676 -1.560397,-2.41174 -1.557828,-4.58881 l 0.0046,-3.95834 2.476956,4.0625 c 1.646142,2.69987 3.447432,4.0625 5.370332,4.0625 6.26236,0 7.89564,-6.01106 2.61636,-9.62915 -9.494124,-6.50666 -11.329299,-10.76455 -6.65446,-15.43938 1.9432,-1.94321 3.84516,-2.47576 7.8125,-2.1875 4.52234,0.32859 5.30184,0.81107 5.6645,3.50603 l 0.42052,3.125 -2.65672,-2.8125 c -2.93275,-3.10478 -6.25723,-3.61455 -8.55928,-1.3125 -2.65819,2.65819 -1.62876,4.66165 4.75,9.24434 5.2977,3.80602 6.25,5.1094 6.25,8.55418 0,5.40168 -3.30326,8.22702 -9.47343,8.10279 -2.69586,-0.0542 -5.6047,-0.3824 -6.464075,-0.72916 z m 20.625,-0.4611 c 2.60644,-1.04766 2.8125,-1.9065 2.8125,-11.722 0,-5.82533 -0.5625,-10.93915 -1.25,-11.36405 -2.1421,-1.32389 -1.39073,-2.52379 2.5,-3.99238 l 3.75,-1.41546 0,13.5793 c 0,11.61398 0.3166,13.76371 2.1875,14.85341 1.65614,0.96462 0.36567,1.26409 -5.3125,1.23289 -5.73917,-0.0315 -6.83969,-0.30664 -4.6875,-1.17171 z m 17.13424,-1.5648 c -6.84748,-5.88994 -5.03234,-19.77539 3.13735,-24.00009 4.9353,-2.55215 14.87552,-2.53162 15.85956,0.0327 1.16409,3.03355 -0.16514,3.32988 -4.29775,0.95809 -5.30706,-3.04584 -10.17198,-1.22851 -13.1828,4.92452 -1.89709,3.87699 -2.04886,5.39483 -0.89044,8.90489 2.60414,7.89064 9.99913,11.49405 15.7949,7.6965 4.39908,-2.88239 5.19116,-1.57884 1.02969,1.69459 -4.68804,3.6876 -13.0353,3.58656 -17.45051,-0.21125 z M 161.5,223.5 c -1.95873,-1.95872 -1.92288,-6.62241 0.0625,-8.1317 0.85937,-0.6533 4.23437,-2.17495 7.5,-3.38144 3.26562,-1.2065 5.96107,-2.85024 5.9899,-3.65275 0.0941,-2.62292 4.84137,7.21301 4.8952,10.14262 0.0289,1.56846 0.89615,3.17551 1.9274,3.57123 1.03125,0.39574 1.875,1.22183 1.875,1.83578 0,1.63132 -5.50165,1.36461 -7.21609,-0.34983 -1.12146,-1.12146 -2.22249,-1.12146 -4.68382,0 -4.13584,1.88441 -8.44589,1.87029 -10.35009,-0.0339 z m 12,-2.5 c 2.16019,-2.16019 1.92436,-8.5 -0.31619,-8.5 -3.90574,0 -8.18381,2.93644 -8.18381,5.61731 0,1.49382 0.375,3.09103 0.83334,3.54935 1.35817,1.35819 6.04977,0.95023 7.66666,-0.66666 z m 45.58713,-9.79302 c -8.67969,-1.75338 -16.12674,-5.67424 -21.83258,-11.49482 -3.61336,-3.68602 -11.53545,-16.65959 -24.12955,-39.51562 l -18.75,-34.0279 -8.75,0.35317 -8.75,0.35319 -0.625,21.25 -0.625,21.25 -6.5625,0.37782 -6.5625,0.37783 0,-21.76618 0,-21.76617 -6.36532,-13.61165 c -3.50092,-7.48641 -6.61502,-13.866373 -6.92022,-14.177701 -0.30519,-0.311328 -6.52815,5.779501 -13.828788,13.535171 L 82.11178,126.44535 68.690515,113.0657 c -7.381695,-7.35881 -13.903721,-13.079752 -14.49339,-12.71321 -0.589669,0.36654 -3.862189,6.34342 -7.272266,13.28197 l -6.200143,12.61554 -7.371094,0 c -5.857907,0 -7.231107,-0.3648 -6.689186,-1.77703 0.37505,-0.97736 12.930985,-26.911943 27.902078,-57.632403 L 81.786682,10.985184 93.705841,35.180697 C 100.26138,48.48823 111.49535,71.329064 118.67022,85.938106 L 131.71544,112.5 l 7.27248,0 7.2725,0 -14.44243,-28.863951 -14.44245,-28.863952 24.74973,0.458287 c 28.04559,0.519314 33.38864,1.892405 41.96468,10.784362 7.44225,7.716414 10.29196,14.566392 10.23829,24.610254 -0.0776,14.51761 -6.23137,24.98693 -18.8839,32.12681 l -5.18065,2.92347 17.23432,30.39177 c 9.47889,16.71549 18.84143,32.08251 20.80566,34.14896 9.65864,10.16128 24.65729,11.04045 34.90159,2.04584 5.85275,-5.13879 8.32136,-10.19987 8.42816,-17.27921 0.17274,-11.45005 -4.49531,-15.61208 -28.0931,-25.04781 -19.41026,-7.76134 -26.22173,-14.82917 -27.06577,-28.08442 -0.63605,-9.98907 1.33139,-15.88209 7.55746,-22.636569 C 209.70705,93.057146 219.57886,88.75 228.01474,88.75 c 10.80976,0 22.82843,6.296083 28.98937,15.18632 3.59881,5.19308 7.38978,19.6698 5.61549,21.44408 -0.56145,0.56145 -3.75824,0.84618 -7.10398,0.63271 l -6.08316,-0.38811 -0.95407,-5.62311 C 246.7533,109.83463 238.64404,102.5 229.12807,102.5 c -10.16908,0 -17.7651,6.27314 -18.80883,15.53323 -0.59874,5.31197 -0.31999,6.00748 4.20726,10.49718 3.24461,3.21769 7.94978,5.9572 14.2235,8.28139 15.37038,5.69419 21.72914,8.83775 26.69319,13.19624 12.98828,11.40387 14.20119,32.77576 2.71389,47.8202 -7.82613,10.24957 -25.16636,16.18738 -39.06995,13.37874 z M 168.49957,110.73659 c 8.50413,-4.44276 13.67963,-14.423854 12.2182,-23.563141 -2.01975,-12.630762 -9.27453,-17.474458 -27.28027,-18.213788 -9.0868,-0.373112 -12.1875,-0.108975 -12.1875,1.038185 0,0.846239 2.46399,6.114787 5.47554,11.707885 3.01153,5.593098 7.79907,14.809894 10.63895,20.481769 2.83987,5.67188 5.74757,10.3125 6.46154,10.3125 0.71397,0 2.81706,-0.79353 4.67355,-1.76341 z M 92.249583,63.789356 81.853127,42.117609 71.391212,63.684006 60.929297,85.250404 71.383861,95.759561 81.838425,106.26872 92.242233,95.86491 102.64604,85.461104 92.249583,63.789356 Z M 160.3047,203.4375 c 0.61379,-1.86935 8.2383,-7.20845 10.19265,-7.13745 0.75771,0.0275 -0.0986,0.85226 -1.90301,1.83274 -1.80436,0.98049 -3.57983,2.92671 -3.94548,4.32496 -0.36565,1.39824 -1.6081,2.54225 -2.761,2.54225 -1.15291,0 -1.86532,-0.70312 -1.58316,-1.5625 z m -38.7422,-16.77084 c -2.27338,-0.90935 -1.91349,-5.0145 0.52152,-5.9489 2.60578,-0.99994 4.5364,0.8153 3.9707,3.73338 -0.46793,2.41378 -2.04817,3.19315 -4.49222,2.21552 z"
       id="path4176"
       inkscape:connector-curvature="0" />
  </g>
</svg>
