<?xml version="1.0" encoding="UTF-8" standalone="no"?>
<svg
   xmlns:dc="http://purl.org/dc/elements/1.1/"
   xmlns:cc="http://creativecommons.org/ns#"
   xmlns:rdf="http://www.w3.org/1999/02/22-rdf-syntax-ns#"
   xmlns:svg="http://www.w3.org/2000/svg"
   xmlns="http://www.w3.org/2000/svg"
   id="svg2722"
   version="1.1"
   viewBox="0 0 23.574377 21.669394"
   >
  <g
     transform="translate(198.50742,-110.7843)"
     id="layer1">
    <path
       d="m -177.49951,111.04896 c 1.27,0 2.30188,1.03187 2.30188,2.30187 0,1.27 -1.03188,2.30188 -1.8124,2.29526 l 0.51594,16.51662 -20.61104,0.0264 1.16416,-16.53645 c -1.27,0 -2.30187,-1.03188 -2.30187,-2.30188 0,-1.27 1.03187,-2.30187 2.30187,-2.30187 m 18.44146,0 h -18.44146"
       id="line1451" />
  </g>
</svg>
