<?xml version="1.0" encoding="UTF-8" standalone="no"?>
<!-- Created with Inkscape (http://www.inkscape.org/) -->

<svg
   xmlns:dc="http://purl.org/dc/elements/1.1/"
   xmlns:cc="http://creativecommons.org/ns#"
   xmlns:rdf="http://www.w3.org/1999/02/22-rdf-syntax-ns#"
   xmlns:svg="http://www.w3.org/2000/svg"
   xmlns="http://www.w3.org/2000/svg"
   xmlns:sodipodi="http://sodipodi.sourceforge.net/DTD/sodipodi-0.dtd"
   xmlns:inkscape="http://www.inkscape.org/namespaces/inkscape"
   viewBox="0 0 50.378635 47.807442"
   version="1.1"
   id="svg5084"
   inkscape:version="0.92.5 (2060ec1f9f, 2020-04-08)"
   sodipodi:docname="casque.svg"
   >
  <g
     inkscape:label="Calque 1"
     inkscape:groupmode="layer"
     id="layer1"
     transform="translate(265.58233,-292.75104)">
    <path
       d="m -240.41535,293.25104 c -7.17815,0 -12.99898,5.82084 -12.99898,12.99898 0,26.97692 -11.66813,33.80846 -11.66813,33.80846 h 18.21392 c 3.2094,0 5.8129,-2.6035 5.8129,-5.8129 v -23.53733 c 0,-0.635 0.51593,-1.15094 1.15093,-1.15094 0.635,0 1.15094,0.51594 1.15226,1.15094 l 0.001,23.53733 c 0,3.2094 2.6035,5.8129 5.8129,5.8129 h 17.23496 c 0,0 -10.81352,-8.10948 -11.71575,-33.92752 0.003,-7.05908 -5.81817,-12.87992 -12.99631,-12.87992 z"
       inkscape:connector-curvature="0"
       sodipodi:nodetypes="scccccscccccs" />
  </g>
</svg>
