<?xml version="1.0" encoding="UTF-8" standalone="no"?>
<svg
   xmlns:dc="http://purl.org/dc/elements/1.1/"
   xmlns:cc="http://creativecommons.org/ns#"
   xmlns:rdf="http://www.w3.org/1999/02/22-rdf-syntax-ns#"
   xmlns:svg="http://www.w3.org/2000/svg"
   xmlns="http://www.w3.org/2000/svg"
   xmlns:sodipodi="http://sodipodi.sourceforge.net/DTD/sodipodi-0.dtd"
   xmlns:inkscape="http://www.inkscape.org/namespaces/inkscape"
   viewBox="0 0 12.609273 6.9790003"
   version="1.1"
   id="svg1712"
   inkscape:version="1.0.1 (0767f8302a, 2020-10-17)"
   sodipodi:docname="logo5.svg">
  <style
     id="style2275"></style>
  <defs
     id="defs1706">
    <clipPath
       id="Clip31">
      <path
         d="M 0,0 H 114.379 V 125.025 H 0 Z"
         transform="translate(3679.73,2799.29)"
         id="path100" />
    </clipPath>
    <clipPath
       id="Clip32">
      <path
         d="M 0,0 H 114.379 V 125.025 H 0 Z"
         transform="translate(3679.73,2799.29)"
         id="path103" />
    </clipPath>
    <clipPath
       id="Clip33">
      <path
         d="M 0,0 H 114.379 V 125.025 H 0 Z"
         transform="translate(3679.73,2799.29)"
         id="path106" />
    </clipPath>
    <clipPath
       id="Clip34">
      <path
         d="M 0,0 H 125.71 V 134.913 H 0 Z"
         transform="translate(3674.04,2795.62)"
         id="path109" />
    </clipPath>
    <clipPath
       id="Clip26">
      <path
         d="M 0,0 H 126.072 V 70.6528 H 0 Z"
         transform="translate(3829.67,2758.92)"
         id="path85" />
    </clipPath>
    <clipPath
       id="Clip27">
      <path
         d="M 0,0 H 126.072 V 70.6528 H 0 Z"
         transform="translate(3829.67,2758.92)"
         id="path88" />
    </clipPath>
    <clipPath
       id="Clip28">
      <path
         d="M 0,0 H 148.737 V 82.1521 H 0 Z"
         transform="translate(3552.78,2972.46)"
         id="path91" />
    </clipPath>
    <clipPath
       id="Clip29">
      <path
         d="M 0,0 H 120.28 V 33.6122 H 0 Z"
         transform="translate(3581.24,2997.92)"
         id="path94" />
    </clipPath>
    <clipPath
       id="Clip30">
      <path
         d="M 0,0 H 120.28 V 33.6122 H 0 Z"
         transform="translate(3581.24,2997.92)"
         id="path97" />
    </clipPath>
  </defs>
  <sodipodi:namedview
     id="base"
     pagecolor="#ffffff"
     bordercolor="#666666"
     borderopacity="1.0"
     inkscape:pageopacity="0.0"
     inkscape:pageshadow="2"
     inkscape:zoom="0.35"
     inkscape:cx="755.10197"
     inkscape:cy="346.99195"
     inkscape:document-units="mm"
     inkscape:current-layer="layer1"
     inkscape:document-rotation="0"
     showgrid="false"
     fit-margin-top="0"
     fit-margin-left="0"
     fit-margin-right="0"
     fit-margin-bottom="0"
     inkscape:window-width="1848"
     inkscape:window-height="1016"
     inkscape:window-x="72"
     inkscape:window-y="27"
     inkscape:window-maximized="1" />
  <metadata
     id="metadata1709">
    <rdf:RDF>
      <cc:Work
         rdf:about="">
        <dc:format>image/svg+xml</dc:format>
        <dc:type
           rdf:resource="http://purl.org/dc/dcmitype/StillImage" />
        <dc:title></dc:title>
      </cc:Work>
    </rdf:RDF>
  </metadata>
  <g
     inkscape:label="Calque 1"
     inkscape:groupmode="layer"
     id="layer1"
     transform="translate(93.954062,-56.358374)">
    <g
       id="g11040"
       clip-path="url(#Clip28)"
       transform="matrix(0.08496244,0,0,0.08496244,-395.80692,-196.18908)"
       style="fill:black;fill-opacity:1">
      <g
         id="g11036"
         clip-path="url(#Clip29)"
         style="fill:black;fill-opacity:1">
        <g
           id="g11034"
           clip-path="url(#Clip30)"
           style="fill:black;fill-opacity:1">
          <path
             style="fill:black;fill-opacity:1;fill-rule:nonzero;stroke:none"
             id=" path10980"
             d="M 2.47839,0 C 1.86818,0 1.28141,0.302231 0.908401,0.80863 0,2.04481 0.312033,4.15328 0.855242,5.58313 1.06988,6.15118 1.34932,6.68461 1.64571,7.0983 1.65018,6.7284 1.71785,6.22467 1.98365,5.6517 2.28987,4.99028 2.67897,4.61389 3.09084,4.21538 3.37452,3.94106 3.66801,3.65737 3.97245,3.24235 4.49376,2.53423 4.67334,1.15442 3.6555,0.405209 3.28919,0.136485 2.89295,0 2.47839,0"
             transform="translate(3691.46,2997.92)" />
          <path
             style="fill:black;fill-opacity:1;fill-rule:nonzero;stroke:none"
             id=" path10982"
             d="M 4.62956,0 C 3.09531,0 1.58138,1.49977 0.751157,2.78397 0.421925,3.29148 0.158362,3.83228 0,4.31723 0.301981,4.10079 0.748253,3.85797 1.36517,3.73355 1.61488,3.68306 1.85745,3.65827 2.10605,3.65827 c 0.38128,0 0.71654,0.05719 1.07146,0.1175 0.38886,0.06635 0.79114,0.1347 1.30665,0.1347 0.87847,0 2.09577,-0.67237 2.09577,-1.93513 C 6.57993,0.692251 5.57505,0 4.62956,0"
             transform="translate(3694.11,3001.17)" />
          <path
             style="fill:black;fill-opacity:1;fill-rule:nonzero;stroke:none"
             id=" path10984"
             d="M 5.47051,0.735809 C 4.75443,0.127773 3.72875,0 2.99458,0 2.0071,0 1.14025,0.215783 0.711175,0.344225 0.465927,0.417717 0.228496,0.505282 0,0.599324 0.167743,0.847948 0.292824,1.10885 0.378816,1.37334 0.440687,1.40349 0.502334,1.43051 0.563982,1.46447 1.20056,1.81763 1.54833,2.23199 1.9162,2.67094 2.17016,2.97362 2.4326,3.2868 2.82572,3.62119 3.20565,3.94553 3.7435,4.13898 4.26482,4.13898 4.66195,4.13898 5.22928,4.02907 5.67578,3.50503 6.50555,2.52842 6.1895,1.3492 5.47051,0.735809"
             transform="translate(3695.02,3006.04)" />
          <path
             style="fill:black;fill-opacity:1;fill-rule:nonzero;stroke:none"
             id=" path10986"
             d="M 2.47839,0 C 1.86818,0 1.28141,0.302231 0.908401,0.80863 0,2.04481 0.312033,4.15328 0.855242,5.58313 1.06988,6.15118 1.34932,6.68461 1.64571,7.0983 1.65018,6.7284 1.71785,6.22467 1.98365,5.6517 2.28987,4.99028 2.67897,4.61389 3.09084,4.21538 3.37452,3.94106 3.66801,3.65737 3.97245,3.24235 4.49376,2.53423 4.67334,1.15442 3.6555,0.405209 3.28919,0.136485 2.89295,0 2.47839,0"
             transform="translate(3691.46,2997.92)" />
          <path
             style="fill:black;fill-opacity:1;fill-rule:nonzero;stroke:none"
             id=" path10988"
             d="M 4.62956,0 C 3.09531,0 1.58138,1.49977 0.751157,2.78397 0.421925,3.29148 0.158362,3.83228 0,4.31723 0.301981,4.10079 0.748253,3.85797 1.36517,3.73355 1.61488,3.68306 1.85745,3.65827 2.10605,3.65827 c 0.38128,0 0.71654,0.05719 1.07146,0.1175 0.38886,0.06635 0.79114,0.1347 1.30665,0.1347 0.87847,0 2.09577,-0.67237 2.09577,-1.93513 C 6.57993,0.692251 5.57505,0 4.62956,0"
             transform="translate(3694.11,3001.17)" />
          <path
             style="fill:black;fill-opacity:1;fill-rule:nonzero;stroke:none"
             id=" path10990"
             d="M 5.47051,0.735809 C 4.75443,0.127773 3.72875,0 2.99458,0 2.0071,0 1.14025,0.215783 0.711175,0.344225 0.465927,0.417717 0.228496,0.505282 0,0.599324 0.167743,0.847948 0.292824,1.10885 0.378816,1.37334 0.440687,1.40349 0.502334,1.43051 0.563982,1.46447 1.20056,1.81763 1.54833,2.23199 1.9162,2.67094 2.17016,2.97362 2.4326,3.2868 2.82572,3.62119 3.20565,3.94553 3.7435,4.13898 4.26482,4.13898 4.66195,4.13898 5.22928,4.02907 5.67578,3.50503 6.50555,2.52842 6.1895,1.3492 5.47051,0.735809"
             transform="translate(3695.02,3006.04)" />
          <path
             style="fill:black;fill-opacity:1;fill-rule:nonzero;stroke:none"
             id=" path10992"
             d="m 2.7511,5.70956 c 0,0.41191 0.16841,0.52427 1.92804,0.52427 2.30126,0 3.12568,-0.76821 3.12568,-1.8909 0,-1.1227 -0.89857,-1.8909 -3.38769,-1.8909 -1.27359,0 -1.66603,0.15056 -1.66603,0.78629 z m 1.62806,2.04012 c -1.31066,0 -1.49694,0.0554 -1.59053,0.61697 -0.09291,0.52559 0,1.47969 0,1.85425 0,0.2995 0.24391,0.749 1.98432,0.749 2.47034,0 3.16298,-0.6367 3.16298,-1.66549 0,-0.95586 -0.84183,-1.55473 -3.55677,-1.55473 z M 5.09123,13.1402 C 0.935868,13.1402 0,12.5424 0,11.2889 0,10.3332 0.056063,5.95237 0.056063,5.07293 0.056063,4.2118 0,2.77034 0,1.8536 0,0.580561 0.504566,0 4.15446,0 c 4.79243,0 6.64494,1.49731 6.64494,3.63214 0,2.67674 -2.17082,2.97607 -2.17082,3.23832 0,0.37438 2.34012,0.4673 2.34012,2.62111 0,1.62793 -0.8432,3.64863 -5.87747,3.64863"
             transform="translate(3581.24,3018.38)" />
          <path
             style="fill:black;fill-opacity:1;fill-rule:nonzero;stroke:none"
             id=" path10994"
             d="m 2.67628,8.72299 c 0,0.67412 -0.26222,0.99309 -1.32854,0.99309 C 0.356257,9.71608 0,9.41652 0,8.72299 0,3.76238 0.0748253,1.46046 0.0748253,0.823823 0.0748253,0.206626 0.318063,0 1.10451,0 1.89007,0 2.07702,0.206626 2.18937,0.917422 2.28384,1.55338 2.33923,1.64742 2.47102,1.64742 2.78864,1.64742 3.12547,0 5.05372,0 c 0.76746,0 1.10451,0.280788 1.10451,1.10461 0,0.69269 -0.13178,1.31124 -1.08575,1.31124 -1.57245,0 -2.3962,0.93462 -2.3962,2.82619 z"
             transform="translate(3592.83,3021.61)" />
          <path
             style="fill:black;fill-opacity:1;fill-rule:nonzero;stroke:none"
             id=" path10996"
             d="M 7.82382,9.73507 C 7.00075,9.73507 6.75751,9.39803 6.62573,8.81674 6.53281,8.4049 6.53281,8.04991 6.36418,8.04991 c -0.3183,0 -0.41121,1.9277 -3.08885,1.9277 -2.18958,0 -3.2565678,-1.36612 -3.2565678,-4.11882 C 0.0187622,2.86462 0,4.25001 0,0.936854 0,0.318986 0.262,0 1.32921,0 c 0.95464,0 1.3473,0.169322 1.3473,0.899552 0,0.336178 -0.03685,3.369898 -0.03685,4.323938 0,1.64765 0.61781,2.47148 1.70289,2.47148 1.32898,0 1.98432,-1.03067 1.98432,-3.08978 0,-2.32159 -0.0382,-3.12598 -0.0382,-3.725079 0,-0.57989 0.33706,-0.8238195 1.32855,-0.8238195 0.9546,0 1.38463,0.1690985 1.38463,0.8613475 0,1.123161 -0.05561,7.189231 -0.05561,7.824321 0,0.61852 -0.33754,0.99311 -1.12242,0.99311"
             transform="translate(3599.55,3021.56)" />
          <path
             style="fill:black;fill-opacity:1;fill-rule:nonzero;stroke:none"
             id=" path10998"
             d="M 4.84734,6.49539 C 4.77229,6.3455 4.71689,6.30953 4.58578,6.30953 c -0.13111,0 -0.20594,0.0181 -0.28076,0.18586 L 2.75201,9.1357 C 2.48979,9.64057 2.30194,9.80992 1.62807,9.80992 1.15991,9.80992 1.04755,9.79044 0.58051,9.79044 0.187175,9.79044 0,9.56578 0,9.32288 0,9.00396 0.149874,8.72378 0.879814,7.76977 1.55392,6.87111 2.02118,6.23314 2.34013,5.76584 2.67628,5.27887 2.78864,5.05438 2.78864,4.77292 2.78864,4.53167 2.75201,4.43585 2.3207,3.80055 1.59121,2.71494 0.767685,1.55427 0.448728,1.08673 0.26133,0.823819 0.187175,0.599994 0.187175,0.411909 0.187175,0.150557 0.355811,0 0.673204,0 H 1.834 C 2.39553,0 2.65753,0.188085 2.95728,0.748987 3.31353,1.40438 3.76204,2.3209 3.9682,2.6955 4.24873,3.21977 4.43524,3.55663 4.58578,3.55663 4.81049,3.55663 5.03585,3.03236 6.19576,0.862019 6.51404,0.262916 6.64448,0.0562913 7.28083,0.0562913 h 1.25503 c 0.2989,0 0.41188,0.1503337 0.41188,0.3556177 0,0.337078 -0.22471,0.599321 -0.58115,1.160231 C 8.08582,2.00326 7.8245,2.35842 7.52497,2.80786 6.7193,4.00584 6.32687,4.34292 6.32687,4.69809 c 0,0.26336 0.05539,0.39359 1.04844,1.85404 0.72927,1.0664 1.32832,1.7973 1.5343,2.07739 0.26193,0.35655 0.35551,0.50618 0.35551,0.74898 0,0.2442 -0.16835,0.43142 -0.72926,0.43142 -0.30016,0 -0.56172,-0.01948 -0.99302,-0.01948 -0.69264,0 -0.87914,-0.16774 -1.14115,-0.69205 l -1.55435,-2.603"
             transform="translate(3609.11,3021.56)" />
          <path
             style="fill:black;fill-opacity:1;fill-rule:nonzero;stroke:none"
             id=" path11000"
             d="m 6.70121,4.00561 c 0.35627,0 0.46727,-0.13045 0.46727,-0.43134 0,-0.6918 -0.65444,-1.6282 -2.24564,-1.6282 -1.64684,0 -2.30195,1.00989 -2.30195,1.66573 0,0.28145 0.07484,0.39381 0.41187,0.39381 z M 4.82925,10.1257 C 1.85321,10.1257 0,8.10504 0,4.90292 0,2.04056 1.74108,0 4.84867,0 c 2.91887,0 4.58556,1.44146 4.58556,4.00561 0,1.12337 -0.35628,1.34652 -1.08552,1.34652 -0.52444,0 -4.92283,-0.01809 -5.35413,-0.01809 -0.41188,0 -0.44941,0.18741 -0.44941,0.48696 0,1.27304 0.97362,2.2273 2.3962,2.2273 2.33946,0 1.9095,-1.51584 3.27623,-1.51584 0.4867,0 0.9352,0.33686 0.9352,0.97349 0,0.93486 -1.16057,2.61975 -4.32355,2.61975"
             transform="translate(3617.93,3021.39)" />
          <path
             style="fill:black;fill-opacity:1;fill-rule:nonzero;stroke:none"
             id=" path11002"
             d="M 0,1.01079 C 0,0.356289 0.356481,0 1.32899,0 c 0.89813,0 1.27247,0.22539 1.27247,1.04898 0,1.10373 -0.07482,9.37762 -0.07482,10.29452 0,0.3562 0.07482,0.4866 0.31873,0.4866 0.13111,0 0.2247,-0.0375 0.42996,-0.0375 0.48671,0 0.73084,0.2998 0.73084,0.8611 0,0.7866 -0.54365,1.1984 -1.6848,1.1984 C 0.748923,13.8521 0,12.8979 0,11.4752 V 1.01079"
             transform="translate(3627.93,3017.68)" />
          <path
             style="fill:black;fill-opacity:1;fill-rule:nonzero;stroke:none"
             id=" path11004"
             d="M 0,1.01079 C 0,0.356289 0.355141,0 1.32876,0 c 0.89903,0 1.27293,0.22539 1.27293,1.04898 0,1.10373 -0.07505,9.37762 -0.07505,10.29452 0,0.3562 0.07505,0.4866 0.31917,0.4866 0.13022,0 0.22382,-0.0375 0.42952,-0.0375 0.48693,0 0.73039,0.2998 0.73039,0.8611 0,0.7866 -0.54298,1.1984 -1.68412,1.1984 C 0.748923,13.8521 0,12.8979 0,11.4752 V 1.01079"
             transform="translate(3632.34,3017.68)" />
          <path
             style="fill:black;fill-opacity:1;fill-rule:nonzero;stroke:none"
             id=" path11006"
             d="m 6.70188,4.00561 c 0.35492,0 0.46727,-0.13045 0.46727,-0.43134 0,-0.6918 -0.65512,-1.6282 -2.24631,-1.6282 -1.64617,0 -2.30195,1.00989 -2.30195,1.66573 0,0.28145 0.07505,0.39381 0.41166,0.39381 z M 4.82902,10.1257 C 1.85344,10.1257 0,8.10504 0,4.90292 0,2.04056 1.74019,0 4.84845,0 7.7682,0 9.43381,1.44146 9.43381,4.00561 c 0,1.12337 -0.35586,1.34652 -1.086,1.34652 -0.524,0 -4.9226,-0.01809 -5.35256,-0.01809 -0.41165,0 -0.44919,0.18741 -0.44919,0.48696 0,1.27304 0.97341,2.2273 2.3953,2.2273 2.33946,0 1.9095,-1.51584 3.27623,-1.51584 0.4867,0 0.93614,0.33686 0.93614,0.97349 0,0.93486 -1.16083,2.61975 -4.32471,2.61975"
             transform="translate(3635.99,3021.39)" />
          <path
             style="fill:black;fill-opacity:1;fill-rule:nonzero;stroke:none"
             id=" path11008"
             d="M 4.45467,8.19864 C 5.76467,8.19864 6.1207,7.73 6.1207,7.26247 6.1207,6.6082 5.52189,6.45831 3.3696,6.10179 0.674097,5.65236 0.11235,4.47382 0.11235,3.16325 0.11235,0.991346 2.17172,0 4.28693,0 c 2.88245,0 4.09841,1.2536 4.09841,2.60147 0,0.63662 -0.4494,0.97347 -1.21596,0.97347 C 6.64515,3.57494 6.3454,3.23809 6.19576,2.97606 5.76467,2.24651 5.16697,1.96484 4.26817,1.96484 c -1.06766,0 -1.66581,0.33707 -1.66581,1.01122 0,0.71124 0.31806,1.04833 2.43283,1.4227 3.10669,0.54237 3.66843,1.42136 3.66843,2.75135 0,1.61013 -1.38527,2.97629 -4.51072,2.97629 C 1.10451,10.1264 0,8.51627 0,7.58011 0,6.90596 0.281655,6.58854 0.936097,6.58854 c 1.198093,0 1.010913,1.6101 3.518573,1.6101"
             transform="translate(3645.97,3021.41)" />
          <path
             style="fill:black;fill-opacity:1;fill-rule:nonzero;stroke:none"
             id=" path11010"
             d="m 3.21995,8.12404 c -0.35649,0 -0.41189,0.0936 -0.41189,0.3183 v 3.51976 c 0,0.6545 -0.35648,0.7857 -1.3292,0.7857 C 0.506132,12.7478 0,12.6548 0,11.9426 0,11.4745 0.0942575,8.17944 0.0942575,6.40158 0.0942575,4.60495 0.0194322,1.38539 0.0194322,0.805056 0.0194322,0.224049 0.169082,0 1.01092,0.0187638 5.89624,0.112359 7.78696,0.112359 8.32974,0.112359 c 0.56173,0 0.78644,0.187191 0.78644,1.178771 0,0.80506 -0.22471,1.1982 -0.76769,1.1982 -0.28076,0 -4.21054,-0.09271 -4.92261,-0.09271 -0.43063,0 -0.59837,0.16776 -0.59837,0.61697 v 2.39642 c 0,0.43066 0.20526,0.69269 0.69197,0.69269 h 4.4359 c 0.71137,0 0.91668,0.29888 0.91668,0.99157 0,0.67416 -0.11173,1.02977 -0.89725,1.02977 H 3.21995"
             transform="translate(3581.38,3002.9)" />
          <path
             style="fill:black;fill-opacity:1;fill-rule:nonzero;stroke:none"
             id=" path11012"
             d="m 2.67651,8.72316 c 0,0.67328 -0.26223,0.99292 -1.32922,0.99292 C 0.355141,9.71608 0,9.4161 0,8.72316 0,3.76193 0.0750486,1.46046 0.0750486,0.823823 0.0750486,0.206179 0.317617,0 1.10384,0 1.89029,0 2.07746,0.206179 2.18982,0.917422 2.28273,1.55406 2.33946,1.64764 2.47124,1.64764 2.78886,1.64764 3.12568,0 5.05326,0 c 0.76814,0 1.1052,0.281011 1.1052,1.10483 0,0.6927 -0.13179,1.30967 -1.08576,1.30967 -1.57267,0 -2.39619,0.93619 -2.39619,2.82777 v 3.48089"
             transform="translate(3591.12,3005.97)" />
          <path
             style="fill:black;fill-opacity:1;fill-rule:nonzero;stroke:none"
             id=" path11014"
             d="m 6.23305,5.87867 c -0.2439,0 -0.63657,0.39248 -1.79714,0.63596 -1.06766,0.22382 -1.81659,0.24258 -1.81659,0.99292 0,0.50417 0.46861,0.87788 1.18002,0.87788 1.74108,0 2.60146,-1.36618 2.60146,-2.20789 0,-0.18651 -0.0554,-0.29887 -0.16775,-0.29887 z M 6.45708,3.8935 c 0,-1.06641 -0.56085,-1.75911 -1.83399,-1.75911 -1.94681,0 -1.88985,1.55315 -1.98433,1.98315 C 2.56394,4.51137 2.24632,4.73609 1.36584,4.73609 0.354918,4.73609 0.0929175,4.32484 0.0929175,3.51979 0.0929175,2.11496 0.916439,0 4.66061,0 c 2.8074,0 4.36106,1.19887 4.36106,4.17429 0,0 -0.01873,4.51139 -0.01873,4.94205 0,0.56153 -0.1865,0.86184 -1.16058,0.86184 C 7.20645,9.97818 6.9813,9.67787 6.88772,9.22866 6.73785,8.51631 6.73785,8.40466 6.6074,8.40466 6.28867,8.40466 5.76511,10.1825 2.93829,10.1825 1.1981,10.1825 0,9.20926 0,7.80711 0,4.34361 6.45708,6.29058 6.45708,4.34361 V 3.8935"
             transform="translate(3597.2,3005.73)" />
          <path
             style="fill:black;fill-opacity:1;fill-rule:nonzero;stroke:none"
             id=" path11016"
             d="m 7.70991,9.9026 c -1.06631,0 -1.38528,-0.0556 -1.38528,-0.80503 0,-0.3358 0.05629,-3.40678 0.05629,-4.34229 0,-1.66618 -0.42997,-2.48999 -1.75984,-2.48999 -1.10384,0 -1.94613,0.93617 -1.94613,2.63988 0,2.26394 0.01876,3.44472 0.01876,4.09948 0,0.82372 -0.31828,0.91667 -1.40336,0.91667 C 0.373679,9.92132 0,9.7341 0,9.02406 0,4.06258 0.0553931,1.70371 0.0553931,1.08517 c 0,-0.635956 0.2434619,-0.860674 1.0283469,-0.860674 0.7114,0 0.918,0.131122 1.08575,0.898874 0.11234,0.54214 0.18716,0.6364 0.29952,0.6364 C 2.80606,1.75977 3.01266,0 5.61413,0 c 1.89007,0 3.3689,1.16067 3.3689,3.96832 0,2.97674 0.05612,1.77787 0.05612,5.07296 0,0.67476 -0.33686,0.86132 -1.32924,0.86132"
             transform="translate(3606.96,3005.75)" />
          <path
             style="fill:black;fill-opacity:1;fill-rule:nonzero;stroke:none"
             id=" path11018"
             d="M 0,4.86697 C 0,2.11562 1.74086,0 4.96014,0 c 3.014,0 4.3432,1.59136 4.3432,3.42529 0,0.65606 -0.48673,0.99224 -1.25438,0.99224 C 7.56227,4.41753 7.18791,4.23034 7.03804,3.8372 6.60763,2.69662 6.45776,2.13505 4.86654,2.13505 c -1.40402,0 -2.33946,0.86046 -2.33946,2.91978 0,1.7953 0.91734,2.99484 2.52731,2.99484 2.33946,0 1.89006,-1.51629 3.25746,-1.51629 0.48536,0 0.93454,0.33618 0.93454,0.97415 0,0.93532 -1.1226,2.62017 -4.28625,2.62017 C 1.64727,10.1277 0,7.82428 0,4.86697 Z"
             transform="translate(3616.33,3005.75)" />
          <path
             style="fill:black;fill-opacity:1;fill-rule:nonzero;stroke:none"
             id=" path11020"
             d="m 7.35632,5.27888 c 0,-1.62821 -0.54277,-2.95731 -2.52731,-2.95731 -1.70288,0 -2.32048,1.44146 -2.32048,2.95731 0,1.59068 0.76747,2.69528 2.3962,2.69528 1.64593,0 2.45159,-1.30921 2.45159,-2.69528 z M 0,5.12899 C 0,1.79664 1.64816,0.0373042 4.84845,0 c 3.1623,0 4.9407,1.64742 4.9407,5.09169 0,2.65843 -1.7402,5.03601 -4.82902,5.03601 C 1.90949,10.1277 0,8.18079 0,5.12899"
             transform="translate(3625.82,3005.75)" />
          <path
             style="fill:black;fill-opacity:1;fill-rule:nonzero;stroke:none"
             id=" path11022"
             d="m 7.09369,4.9226 c 0,-1.68361 -0.89791,-2.61957 -2.24656,-2.61957 -1.08486,0 -2.1342,0.95406 -2.1342,2.65776 0,2.15226 0.86284,3.08978 2.19116,3.08978 1.32832,0 2.1896,-0.78763 2.1896,-3.12797 z m -4.43615,5.6727 c 0,0.4869 0.03753,1.1428 0.03753,1.5165 0,0.5991 -0.2428,0.898 -1.32855,0.898 C 0.580289,13.0098 0,12.8427 0,12.1118 0,7.11305 0.0562867,1.64696 0.0562867,1.01101 c 0,-0.637074 0.1308893,-0.898651 1.1042933,-0.898651 0.72949,0 0.89813,0.168651 1.10384,1.011011 0.0936,0.37461 0.16842,0.48675 0.29953,0.48675 C 2.99459,1.61012 3.31287,0 5.65278,0 8.0671,0 9.76991,1.7781 9.76991,5.14865 c 0,3.19946 -2.00234,4.99655 -4.22946,4.99655 -1.96468,0 -2.41542,-1.04679 -2.7136,-1.04679 -0.11392,0 -0.16931,0.07352 -0.16931,0.22315 v 1.27374"
             transform="translate(3636.1,3005.76)" />
          <path
             style="fill:black;fill-opacity:1;fill-rule:nonzero;stroke:none"
             id=" path11024"
             d="m 8.94623,12.6922 c 0,0.6165 -0.2989,0.9547 -1.29015,0.9547 -0.95576,0 -1.38528,-0.2246 -1.38528,-0.9547 0,-0.3566 0.03663,-3.23969 0.03663,-4.15628 0,-1.66638 -0.43063,-2.4893 -1.74108,-2.4893 -1.08575,0 -1.90949,0.93528 -1.90949,2.62019 v 4.13699 c 0,0.5234 -0.2801,0.8238 -1.21597,0.8238 C 0.673204,13.6276 0,13.5347 0,12.8232 0,7.89999 0.0178687,1.53528 0.0178687,0.897976 0.0178687,0.280786 0.280092,0 1.25372,0 2.20901,0 2.52664,0.187191 2.52664,0.805054 V 4.54798 c 0,0.46953 0.05606,0.54369 0.16841,0.54369 0.29953,0 0.54276,-1.34808 2.86346,-1.34808 1.6294,0 3.36891,0.88012 3.36891,4.00584 l 0.01881,4.94277"
             transform="translate(3646.69,3002.04)" />
          <path
             style="fill:black;fill-opacity:1;fill-rule:nonzero;stroke:none"
             id=" path11026"
             d="m 7.35608,5.27888 c 0,-1.62821 -0.54209,-2.95731 -2.52641,-2.95731 -1.70355,0 -2.32136,1.44146 -2.32136,2.95731 0,1.59068 0.76768,2.69528 2.39641,2.69528 1.64727,0 2.45136,-1.30921 2.45136,-2.69528 z M 0,5.12899 C 0,1.79664 1.64727,0.0373042 4.84776,0 8.0123,0 9.79008,1.64742 9.79008,5.09169 9.79008,7.75012 8.0496,10.1277 4.96079,10.1277 1.90948,10.1277 0,8.18079 0,5.12899"
             transform="translate(3656.13,3005.75)" />
          <path
             style="fill:black;fill-opacity:1;fill-rule:nonzero;stroke:none"
             id=" path11028"
             d="m 7.7117,9.9026 c -1.06722,0 -1.38528,-0.0556 -1.38528,-0.80503 0,-0.3358 0.05673,-3.40678 0.05673,-4.34229 0,-1.66618 -0.43131,-2.48999 -1.76029,-2.48999 -1.10474,0 -1.94635,0.93617 -1.94635,2.63988 0,2.26394 0.01876,3.44472 0.01876,4.09948 0,0.82372 -0.31828,0.91667 -1.40402,0.91667 C 0.374573,9.92132 0,9.7341 0,9.02406 0,4.06258 0.0569565,1.70371 0.0569565,1.08517 c 0,-0.635956 0.2427905,-0.860674 1.0290235,-0.860674 0.70983,0 0.91643,0.131122 1.08507,0.898874 0.11234,0.54214 0.18651,0.6364 0.30019,0.6364 C 2.80829,1.75977 3.01423,0 5.61569,0 c 1.89074,0 3.36894,1.16067 3.36894,3.96832 0,2.97674 0.05536,1.77787 0.05536,5.07296 0,0.67476 -0.33636,0.86132 -1.32829,0.86132"
             transform="translate(3666.39,3005.75)" />
          <path
             style="fill:black;fill-opacity:1;fill-rule:nonzero;stroke:none"
             id=" path11030"
             d="m 6.70188,4.00585 c 0.35493,0 0.46727,-0.13112 0.46727,-0.43067 0,-0.69202 -0.65444,-1.62888 -2.24565,-1.62888 -1.6475,0 -2.30261,1.01168 -2.30261,1.66618 0,0.28168 0.07484,0.39337 0.41187,0.39337 z M 4.82992,10.1277 C 1.85388,10.1277 0,8.10462 0,4.90517 0,2.03989 1.74175,0 4.84935,0 7.7682,0 9.43423,1.44235 9.43423,4.00585 c 0,1.12314 -0.35561,1.34719 -1.08552,1.34719 -0.52355,0 -4.92216,-0.01876 -5.35346,-0.01876 -0.41188,0 -0.4494,0.18809 -0.4494,0.48741 0,1.27393 0.97363,2.22798 2.39641,2.22798 2.33924,0 1.90928,-1.51629 3.27601,-1.51629 0.48577,0 0.9352,0.33618 0.9352,0.97415 0,0.93532 -1.16057,2.62017 -4.32355,2.62017"
             transform="translate(3675.86,3005.75)" />
          <path
             style="fill:black;fill-opacity:1;fill-rule:nonzero;stroke:none"
             id=" path11032"
             d="m 4.45557,8.19908 c 1.31044,0 1.66536,-0.46753 1.66536,-0.93617 C 6.12093,6.60819 5.52189,6.45785 3.3696,6.10268 0.673874,5.65346 0.11235,4.47403 0.11235,3.16347 0.11235,0.992469 2.1715,0 4.28626,0 c 2.88289,0 4.10042,1.25449 4.10042,2.60168 0,0.6373 -0.45051,0.9737 -1.21753,0.9737 -0.52355,0 -0.82352,-0.3364 -0.9725,-0.59843 -0.43064,-0.73022 -1.02991,-1.011 -1.92826,-1.011 -1.06654,0 -1.66626,0.33707 -1.66626,1.011 0,0.71146 0.31829,1.04765 2.43372,1.42203 3.10671,0.54303 3.66845,1.42359 3.66845,2.75157 0,1.60917 -1.38528,2.97675 -4.51095,2.97675 C 1.1054,10.1273 0,8.51718 0,7.58189 0,6.90773 0.281432,6.58897 0.93677,6.58897 c 1.19742,0 1.01024,1.61011 3.5188,1.61011"
             transform="translate(3686.21,3005.76)" />
        </g>
      </g>
      <path
         style="fill:black;fill-opacity:1;fill-rule:nonzero;stroke:none"
         id=" path11038"
         d="m 43.4868,80.2885 -4.0677,-1.8672 -4.228,-0.4084 c -2.3255,-0.2244 -4.2763,-0.4277 -4.3353,-0.4513 -0.058,-0.0231 -1.4077,-1.871 -2.9972,-4.1048 l -2.8902,-4.0613 -0.0276,-2.2671 -0.0276,-2.2668 -2.8516,-0.9261 c -1.5681,-0.5091 -2.887,-0.9552 -2.9304,-0.9912 -0.0441,-0.0358 -0.0781,-0.1239 -0.0781,-0.1956 0,-0.0709 0.3632,-1.5522 0.8069,-3.2898 0.4439,-1.7382 0.7991,-3.1658 0.7895,-3.1727 -0.0148,-0.011 -2.6576,-0.4571 -2.8317,-0.4767 -0.0461,-0.0102 -0.8474,0.7071 -1.7794,1.5827 -1.0581,0.994 -1.7352,1.5926 -1.8026,1.5926 -0.1223,0 -13.999086,-6.4498 -14.142549,-6.5733 C 0.0426711,52.3673 0,52.2864 0,52.232 0,52.1437 3.36807,43.2412 3.48339,43.0257 3.51098,42.976 3.57444,42.9212 3.62613,42.9049 3.67762,42.8911 5.5374,42.5012 7.75896,42.0436 c 2.22161,-0.4575 4.05474,-0.8494 4.07344,-0.8707 0.0175,-0.0202 0.4098,-1.9269 0.8696,-4.2337 0.4599,-2.3073 0.8589,-4.2219 0.8867,-4.2554 0.0286,-0.0331 0.4733,-0.2776 0.9901,-0.5423 0.5171,-0.2651 0.9407,-0.4946 0.9414,-0.51 3e-4,-0.0137 -1.0408,-0.9587 -2.3138,-2.0962 -1.2733,-1.1371 -2.372,-2.1286 -2.4418,-2.2032 -0.0883,-0.0942 -0.1176,-0.1735 -0.0947,-0.2593 0.0156,-0.0671 1.5492,-1.9455 3.4051,-4.1725 1.8558,-2.2272 3.3741,-4.0898 3.3741,-4.1393 0,-0.0497 -0.289,-1.2097 -0.6422,-2.5784 -0.6673,-2.5859 -0.6726,-2.6194 -0.4403,-2.7406 0.0496,-0.0275 1.8143,-0.5959 3.9193,-1.2655 l 3.8267,-1.2172 4.3276,-2.08118 4.3273,-2.08106 h 3.8286 3.8287 l 2.4344,1.50263 c 1.3389,0.82661 2.4538,1.48301 2.4778,1.45871 0.0229,-0.02572 0.9359,-1.71834 2.0262,-3.76425 1.0902,-2.046 2.0335,-3.76201 2.0963,-3.81369 0.1026,-0.08369 0.2601,-0.09299 1.5137,-0.09299 h 1.3994 L 53.4154,1.04379 C 53.9887,0.469698 54.4998,0 54.5509,0 c 0.1076,0 4.1558,1.54061 4.2566,1.61999 0.1219,0.09472 0.0699,0.32483 -0.3625,1.61953 -0.236,0.70588 -0.4228,1.32337 -0.4147,1.3723 0.01,0.04783 1.4053,1.57253 3.1053,3.38556 2.2046,2.35092 3.0908,3.33112 3.0908,3.41742 0,0.0848 -0.2402,0.3614 -0.8027,0.9229 -0.4415,0.4409 -0.8028,0.8221 -0.8028,0.8474 0,0.0266 0.8706,1.5058 1.9348,3.2902 1.0642,1.7845 1.9445,3.283 1.9571,3.3301 0.0111,0.0469 -0.0248,0.1416 -0.0781,0.2103 -0.0932,0.1151 -0.2474,0.1461 -2.0113,0.4033 -1.0507,0.1536 -1.9279,0.2962 -1.9496,0.3177 -0.022,0.0202 -0.3547,1.2408 -0.7395,2.7098 l -0.7001,2.6711 4.5911,3.1385 c 2.5249,1.726 4.6328,3.1688 4.6843,3.2064 0.0727,0.0514 0.0101,0.0496 -0.2781,-0.0102 -0.5966,-0.1216 -1.9893,-0.1501 -2.6198,-0.0524 -0.9431,0.1449 -1.7797,0.4647 -2.5156,0.9632 -0.334,0.2259 -0.9265,0.7868 -1.1618,1.0995 l -0.1361,0.1809 -0.1796,-0.3416 c -0.2671,-0.5073 -0.9759,-1.1952 -1.5226,-1.478 -0.7431,-0.3838 -1.1391,-0.4685 -2.1647,-0.4639 -0.7217,0 -0.9577,0.0257 -1.2919,0.1162 -0.4341,0.1193 -1.0239,0.3962 -1.3273,0.6235 l -0.1836,0.1378 -0.1716,-0.1872 c -0.2577,-0.2813 -0.6818,-0.4532 -1.2104,-0.4905 -0.9276,-0.0653 -1.6097,0.1794 -1.9606,0.7037 -0.0966,0.1461 -0.1907,0.3324 -0.2071,0.4145 -0.0378,0.1887 -0.0672,0.1869 -0.2606,-0.0157 -0.0846,-0.091 -0.3017,-0.2691 -0.4785,-0.395 -0.9443,-0.6739 -1.9444,-0.9372 -3.5591,-0.9372 -1.5523,0 -2.651,0.2653 -3.5922,0.8672 l -0.2919,0.1868 -0.2041,-0.2345 c -0.3871,-0.4452 -1.0192,-0.6471 -1.8431,-0.5881 -0.6894,0.0478 -1.3015,0.2605 -1.7671,0.6101 l -0.1788,0.1343 -0.15,-0.1822 c -0.3345,-0.4056 -1.0167,-0.6205 -1.7843,-0.5618 -0.2409,0.0156 -0.496,0.0487 -0.5674,0.0689 -0.1121,0.0322 -0.1236,0.0239 -0.0845,-0.0652 0.0248,-0.0562 0.0533,-0.3615 0.0679,-0.6779 0.0434,-0.947 -0.1364,-1.5516 -0.5754,-1.9273 -0.4081,-0.3492 -0.3525,-0.3445 -4.8173,-0.4056 -2.5303,-0.0359 -4.1393,-0.0369 -4.3044,-0.0101 -0.6077,0.1157 -1.0924,0.565 -1.193,1.1062 -0.0266,0.1403 -0.044,2.9649 -0.0422,6.2768 l 0.0101,6.0215 0.1131,0.2169 c 0.2494,0.4776 0.7308,0.779 1.4135,0.8853 0.5099,0.0782 1.6429,0.0332 2.0111,-0.08 0.4934,-0.154 0.9114,-0.5538 1.032,-0.9878 0.0312,-0.1099 0.0533,-0.9011 0.0533,-1.8366 l 3e-4,-1.6429 2.3952,-0.0184 c 1.3172,-0.0101 2.4473,-0.0385 2.5114,-0.0607 l 0.1163,-0.0423 0.0157,1.6792 0.0156,1.6791 0.1764,0.3578 c 0.3027,0.6149 0.7642,0.8991 1.6523,1.0179 0.9409,0.126 1.8446,-0.1153 2.2901,-0.6109 0.4199,-0.4668 0.4182,-0.4537 0.4569,-3.1759 0.0212,-1.4633 0.0561,-2.473 0.0901,-2.5724 0.2187,-0.6316 0.6096,-0.9103 1.2208,-0.8706 l 0.2674,0.0165 0.0369,0.3324 c 0.0643,0.5808 0.339,1.0653 0.7531,1.3274 l 0.2317,0.1468 -0.3038,0.2898 c -0.5373,0.5125 -0.7981,1.1681 -0.7981,2.0068 0,0.9568 0.2577,1.5938 0.9081,2.2444 0.6797,0.6797 1.5593,1.0394 2.6938,1.1019 0.5827,0.0323 1.2678,-0.0321 1.8483,-0.174 0.3983,-0.0969 1.2258,-0.4732 1.4972,-0.6799 l 0.1769,-0.1347 0.24,0.2561 c 0.3282,0.3511 0.6741,0.4944 1.2676,0.5249 0.5762,0.0313 1.0441,-0.0561 1.4225,-0.2593 l 0.2867,-0.1541 0.2503,0.1269 c 0.3909,0.198 0.8206,0.2583 1.674,0.2348 0.7014,-0.0174 0.7947,-0.034 1.0881,-0.1699 0.393,-0.1816 0.5821,-0.3553 0.7677,-0.7042 l 0.1422,-0.2678 0.0303,-2.703 c 0.0322,-3.0417 0.0368,-3.0825 0.4242,-3.4969 0.1959,-0.21 0.2199,-0.2199 0.582,-0.2403 0.3532,-0.0185 0.3856,-0.011 0.5094,0.1211 0.2588,0.2792 0.2744,0.4802 0.2748,3.5358 l 6e-4,2.8369 0.1605,0.2903 c 0.3417,0.6177 0.7802,0.7813 2.0872,0.7784 1.0025,0 1.2665,-0.0617 1.7274,-0.397 0.2293,-0.1663 0.5474,-0.7194 0.5474,-0.9521 0,-0.1202 0.0248,-0.1098 0.3079,0.1465 0.6838,0.614 1.4313,1.0073 2.4176,1.2729 0.4733,0.1276 0.6006,0.1384 1.6631,0.1414 0.9227,0 1.2388,-0.0137 1.595,-0.0942 1.3706,-0.3 2.4232,-0.912 3.0377,-1.7661 l 0.1087,-0.1516 0.4258,0.4253 c 0.6464,0.6458 1.3791,1.0807 2.2902,1.36 l 0.3831,0.1174 -0.4109,0.0644 c -0.7892,0.1237 -1.3058,0.4686 -1.5749,1.0515 l -0.1548,0.3353 -0.0138,1.8598 -0.0138,1.8595 -0.3585,-0.2761 c -0.4493,-0.3457 -1.2966,-0.7536 -1.8573,-0.8934 -1.2694,-0.3176 -2.887,-0.2971 -4.0171,0.0496 -0.449,0.138 -1.1336,0.4725 -1.4874,0.7267 -0.1427,0.1026 -0.2636,0.1786 -0.2686,0.1693 -0.0101,-0.0101 -0.0616,-0.1309 -0.1273,-0.2702 -0.1347,-0.2884 -0.4519,-0.5464 -0.7813,-0.6349 -0.1333,-0.0359 -0.6138,-0.0496 -1.2626,-0.0387 -0.9789,0.0175 -1.0648,0.0286 -1.315,0.1501 -0.4514,0.2197 -0.7022,0.5349 -1.2492,1.5701 -0.275,0.52 -0.5075,0.9459 -0.5171,0.9459 -0.01,0 -0.242,-0.4259 -0.5169,-0.9459 -0.563,-1.0655 -0.8202,-1.3806 -1.3151,-1.6123 -0.2951,-0.1379 -0.353,-0.1451 -1.3231,-0.1632 -1.078,-0.0184 -1.2977,0.0101 -1.6178,0.2287 l -0.1758,0.1191 -0.389,-0.1316 c -0.2989,-0.1012 -0.5374,-0.1379 -1.0313,-0.1572 -1.0035,-0.0386 -1.6811,0.1684 -2.0825,0.6372 -0.3476,0.4063 -0.3559,0.4817 -0.3494,3.1761 0.0101,2.0175 -0.0101,2.4675 -0.0782,2.7711 -0.168,0.7229 -0.4178,1.0017 -0.8973,1.002 -0.3278,0 -0.5374,-0.172 -0.6695,-0.5498 -0.0892,-0.2563 -0.0968,-0.5079 -0.0968,-3.0362 0,-3.0158 0.0101,-2.9083 -0.3245,-3.382 -0.1995,-0.2826 -0.6667,-0.5451 -1.1169,-0.6276 -0.7529,-0.138 -1.7947,-0.0323 -2.2517,0.2276 l -0.2139,0.1218 -0.3403,-0.1581 c -0.2755,-0.1278 -0.4347,-0.1628 -0.8351,-0.1839 -0.8251,-0.0432 -1.5182,0.1337 -2.1284,0.5435 l -0.2822,0.1893 -0.1271,-0.1618 c -0.3941,-0.5023 -1.4513,-0.7309 -2.3261,-0.5027 -0.1698,0.0442 -0.316,0.0801 -0.3253,0.0801 -0.0101,0 -0.0589,-0.1146 -0.111,-0.2545 -0.4984,-1.3487 -1.76,-2.2968 -3.6777,-2.7633 -1.0735,-0.2612 -1.5738,-0.3117 -3.3782,-0.34 -1.0777,-0.0147 -1.9128,-0.0102 -2.2748,0.0331 -1.739,0.183 -2.6218,0.6995 -2.9817,1.7452 -0.0827,0.2446 -0.0931,0.7165 -0.1088,5.4865 -0.0102,3.4736 0,5.3172 0.0386,5.5133 0.172,0.9051 0.9208,1.5701 2.1118,1.8746 0.8924,0.2285 1.6021,0.2871 3.4995,0.2898 1.9349,0 2.4768,-0.045 3.5325,-0.315 0.8712,-0.2222 1.8255,-0.6799 2.2512,-1.0798 l 0.1377,-0.129 0.1836,0.3601 c 0.2066,0.4053 0.552,0.7092 0.9598,0.8455 0.4077,0.136 1.0701,0.1947 1.5621,0.139 0.8326,-0.0941 1.3511,-0.3905 1.6376,-0.9342 l 0.145,-0.2751 0.0331,-2.3819 c 0.036,-2.5222 0.0636,-2.805 0.3108,-3.1512 0.2509,-0.3496 0.4782,-0.4626 1.0352,-0.5144 0.1837,-0.0156 0.4486,-0.0434 0.5883,-0.0571 l 0.2541,-0.0267 V 53.99 c 0,1.7303 0.0414,2.2361 0.243,3.0031 0.3813,1.4473 1.3416,2.4623 2.6739,2.8256 0.4898,0.1333 1.7772,0.1608 2.3374,0.0496 0.493,-0.0968 1.1005,-0.3612 1.5056,-0.6523 l 0.2642,-0.1897 0.1943,0.1861 c 0.2796,0.2682 0.5947,0.4078 1.0792,0.4784 0.5046,0.0726 1.0794,0.01 1.4294,-0.1608 l 0.2275,-0.1099 0.308,0.1692 0.308,0.1687 H 57.57 c 1.0691,0 1.1372,-0.01 1.4058,-0.1272 0.4105,-0.1855 0.7097,-0.5531 1.3504,-1.6587 0.309,-0.5331 0.5748,-0.9698 0.5905,-0.9701 0.0137,0 0.3036,0.4621 0.6398,1.0274 0.6938,1.1658 0.8011,1.3047 1.161,1.4994 0.3953,0.214 0.7921,0.2674 1.8383,0.2473 0.903,-0.0157 0.9458,-0.0231 1.2469,-0.171 0.2773,-0.1363 0.568,-0.4252 0.6375,-0.6342 0.0102,-0.0323 0.2062,0.0506 0.4437,0.1909 0.6845,0.4007 1.3432,0.6199 2.2137,0.7364 0.5515,0.0725 1.8948,0.0312 2.4414,-0.0801 0.2059,-0.0413 0.4018,-0.0598 0.4351,-0.0405 0.2939,0.1679 9.4967,7.236 9.5402,7.3276 0.1455,0.3052 1.063,-0.115 -16.8071,7.6948 -9.9046,4.3287 -16.8479,7.3348 -16.9585,7.342 -0.1476,0.0101 -1.0503,-0.384 -4.2549,-1.8552 z"
         transform="translate(3552.78,2972.46)" />
    </g>
  </g>
</svg>
