<?xml version="1.0" encoding="UTF-8" standalone="no"?>
<svg
   xmlns:dc="http://purl.org/dc/elements/1.1/"
   xmlns:cc="http://creativecommons.org/ns#"
   xmlns:rdf="http://www.w3.org/1999/02/22-rdf-syntax-ns#"
   xmlns:svg="http://www.w3.org/2000/svg"
   xmlns="http://www.w3.org/2000/svg"
   id="svg2464"
   version="1.1"
   viewBox="0 0 35.136654 12.303126"
   >
  <g
     transform="translate(263.25285,-237.17582)"
     id="layer1">
    <path
       d="m -242.77411,239.00144 c 0.60854,0.9525 1.69334,1.5875 2.91042,1.5875 h 11.48292 c -1.0848,4.86834 -8.41375,8.62542 -17.30375,8.62542 -8.89,0 -16.21896,-3.75708 -17.30375,-8.62542 h 11.45645 c 1.21709,0 2.30188,-0.635 2.91042,-1.5875 m 5.84729,0 c -0.60854,-0.9525 -1.66687,-1.56104 -2.88396,-1.56104 -1.21708,0 -2.30187,0.60854 -2.93687,1.56104"
       id="path801" />
  </g>
</svg>
