<?xml version="1.0" encoding="UTF-8" standalone="no"?>
<svg
   xmlns:dc="http://purl.org/dc/elements/1.1/"
   xmlns:cc="http://creativecommons.org/ns#"
   xmlns:rdf="http://www.w3.org/1999/02/22-rdf-syntax-ns#"
   xmlns:svg="http://www.w3.org/2000/svg"
   xmlns="http://www.w3.org/2000/svg"
   xmlns:sodipodi="http://sodipodi.sourceforge.net/DTD/sodipodi-0.dtd"
   xmlns:inkscape="http://www.inkscape.org/namespaces/inkscape"
   viewBox="0 0 419.52801 595.27598"
   width="419.52802pt"
   height="595.276pt"
   version="1.1"
   id="svg12"
   sodipodi:docname="slip-stand.svg"
   inkscape:version="0.92.3 (2405546, 2018-03-11)">
  <metadata
     id="metadata16">
    <rdf:RDF>
      <cc:Work
         rdf:about="">
        <dc:format>image/svg+xml</dc:format>
        <dc:type
           rdf:resource="http://purl.org/dc/dcmitype/StillImage" />
        <dc:title></dc:title>
      </cc:Work>
    </rdf:RDF>
  </metadata>
  <sodipodi:namedview
     pagecolor="#ffffff"
     bordercolor="#666666"
     borderopacity="1"
     objecttolerance="10"
     gridtolerance="10"
     guidetolerance="10"
     inkscape:pageopacity="0"
     inkscape:pageshadow="2"
     inkscape:window-width="1920"
     inkscape:window-height="1032"
     id="namedview14"
     showgrid="false"
     fit-margin-top="0"
     fit-margin-left="0"
     fit-margin-right="0"
     fit-margin-bottom="0"
     inkscape:zoom="0.36789657"
     inkscape:cx="279.68535"
     inkscape:cy="396.85068"
     inkscape:window-x="1366"
     inkscape:window-y="20"
     inkscape:window-maximized="1"
     inkscape:current-layer="forme" />
  <defs
     id="defs2" />
  <g
     inkscape:label="forme"
     inkscape:groupmode="layer"
     id="forme"
     transform="translate(-87.87399,87.873991)">
    <g
       id="g23"
       transform="rotate(-90,297.638,209.76401)">
      <rect
         id="rect4"
         x="0"
         height="419.52802"
         y="0"
         width="595.276"
         style="fill:#ffffff;stroke:none" />
      <g
         id="Copy of  path6646-2"
         transform="translate(222.142,153.751)">
        <path
           id="path6"
           d="M 0,55.9336 0.257385,10.972 C 7.12964,4.23184 17.7661,-0.0704555 29.6768,8.73526e-4 38.4668,0.0445026 46.5411,2.46793 52.8976,6.49044 59.2541,10.5276 67.3422,12.9516 76.1616,13.0093 84.508,13.066 92.2232,10.9583 98.4582,7.36556 104.936,3.2278 113.225,0.775378 122.244,0.818373 133.84,0.889716 144.176,5.07767 150.991,11.6039 l -0.257,45.2478 -19.872,-0.1216 C 112.983,56.6075 98.079,71.3797 98.0002,89.508 97.9517,101.928 87.6712,112.096 75.0879,112.025 62.4899,111.939 52.3399,101.642 52.4184,89.243 52.5398,71.1217 37.7941,56.1924 19.4985,56.0625 Z"
           style="fill:none"
           inkscape:connector-curvature="0" />
        <path
           id="path8"
           d="M 0,55.9336 0.257385,10.972 C 7.12964,4.23184 17.7661,-0.0704555 29.6768,8.73526e-4 38.4668,0.0445026 46.5411,2.46793 52.8976,6.49044 59.2541,10.5276 67.3422,12.9516 76.1616,13.0093 84.508,13.066 92.2232,10.9583 98.4582,7.36556 104.936,3.2278 113.225,0.775378 122.244,0.818373 133.84,0.889716 144.176,5.07767 150.991,11.6039 l -0.257,45.2478 -19.872,-0.1216 C 112.983,56.6075 98.079,71.3797 98.0002,89.508 97.9517,101.928 87.6712,112.096 75.0879,112.025 62.4899,111.939 52.3399,101.642 52.4184,89.243 52.5398,71.1217 37.7941,56.1924 19.4985,56.0625 Z"
           style="fill:none;stroke:#ffadbb;stroke-width:2.00126004;stroke-linecap:butt;stroke-linejoin:miter;stroke-dasharray:none"
           inkscape:connector-curvature="0" />
      </g>
    </g>
  </g>
</svg>
