<?xml version="1.0" encoding="UTF-8" standalone="no"?>
<!-- Created with Inkscape (http://www.inkscape.org/) -->

<svg
   version="1.1"
   id="svg2"
   viewBox="0 0 701.12 640.64001"
   xmlns="http://www.w3.org/2000/svg"
   xmlns:svg="http://www.w3.org/2000/svg">
  <defs
     id="defs6" />
  <path
     style="fill:white;stroke-width:0.32"
     d="m 179.52,607.99422 c -4.44332,-0.61696 -8.04452,-1.71456 -11.71536,-3.57072 l -1.95536,-0.98874 1.74623,-4.35737 c 0.96043,-2.39655 1.79304,-4.40608 1.85024,-4.4656 0.0572,-0.0595 0.72731,0.25417 1.48913,0.69708 5.77945,3.3601 14.84031,5.11303 20.35511,3.93789 10.04894,-2.14128 15.18093,-11.49571 11.58276,-21.11267 -1.97599,-5.28128 -5.04245,-7.59712 -18.7277,-14.14343 -3.35222,-1.60352 -7.13595,-3.58889 -8.40828,-4.41196 -4.66551,-3.01812 -7.67448,-6.95293 -9.34369,-12.21869 -1.00308,-3.16435 -1.25272,-9.98192 -0.4909,-13.40618 1.66266,-7.47334 7.39616,-13.38909 15.35668,-15.84486 6.86258,-2.11706 19.78463,-1.24144 25.90483,1.75533 0.98797,0.48374 1.79631,1.03596 1.79631,1.22716 0,0.19117 -0.58409,2.10032 -1.29798,4.2425 l -1.29799,3.89491 -1.82201,-0.81405 c -4.83573,-2.16054 -10.67165,-3.62086 -14.42394,-3.60924 -2.31679,0.007 -5.82002,0.75305 -7.61271,1.62086 -3.54526,1.71626 -6.41662,5.60829 -7.18095,9.73357 -0.6335,3.4191 0.18088,8.28774 1.82799,10.92832 2.66328,4.26966 4.75955,5.61382 20.28759,13.0088 5.99856,2.8567 9.91687,5.89209 12.40164,9.60713 2.58009,3.85757 3.92504,9.08189 3.9128,15.19892 -0.0118,5.89718 -1.73349,10.29072 -5.67415,14.47968 -4.0305,4.28445 -8.71819,6.83453 -14.96029,8.1384 -2.99132,0.6248 -10.60055,0.88944 -13.6,0.47296 z m 185.0281,-0.87421 c -0.173,-0.484 -7.47719,-20.392 -16.23156,-44.24 -8.75436,-23.848 -15.9886,-43.61549 -16.07612,-43.92771 -0.14858,-0.53024 0.20534,-0.56196 5.35651,-0.48 l 5.51558,0.0877 12.01779,34.48 c 6.6098,18.964 12.12007,34.48 12.24503,34.48 0.12496,0 1.4671,-3.708 2.98259,-8.24 1.51546,-4.532 6.73462,-20.084 11.59811,-34.56 l 8.84275,-26.32 h 5.27485 c 4.07965,0 5.24378,0.0906 5.13776,0.4 -0.0754,0.22 -7.25478,20.37728 -15.95421,44.79392 l -15.81718,44.39392 -2.2887,0.006 c -2.20944,0.006 -2.29959,-0.0243 -2.6032,-0.87392 z M 34.88,562.56001 v -44.16 H 61.6 88.32 v 4.32 4.32 H 66.4 44.48 v 13.92 13.92 h 16 16 v 4 4 h -16 -16 v 21.92 21.92 h -4.8 -4.8 z m 66.56,0 v -44.16 h 25.6 25.6 v 4.32 4.32 H 132 111.36 v 13.92 13.92 h 14.72 14.72 v 4 4 h -14.72 -14.72 v 17.6 17.6 H 132 152.64 v 4.32 4.32 h -25.6 -25.6 z m 150.08,4.32 v -39.84 h -14.48 -14.48 v -4.32 -4.32 h 34.48 34.48 v 4.31686 4.31687 l -15.12,0.0831 -15.12,0.0831 v 39.76 39.76 h -4.88 -4.88 z m 55.04,-4.32 v -44.16 h 4.96 4.96 v 44.16 44.16 h -4.96 -4.96 z m 184.64,0 v -44.16 h 4.88 4.88 v 39.76 39.76 l 20.56,0.0823 20.56,0.0824 v 4.31764 4.31766 H 516.64 491.2 Z m -85.36275,-8.4 c 0.0801,-0.22 7.67824,-20.956 16.88467,-46.08 l 16.73894,-45.68 3.06957,0.006 3.06957,0.006 16.29347,45.67408 c 8.96141,25.12073 16.35683,45.85408 16.43424,46.07408 0.10963,0.31152 -1.30301,0.4 -6.38681,0.4 h -6.52762 l -5.56042,-16.56 c -17.32844,-51.60736 -17.06425,-50.85421 -17.47782,-49.82752 -0.20992,0.52112 -5.42707,15.41952 -11.59366,33.10752 -6.16663,17.688 -11.31053,32.412 -11.43095,32.72 -0.19881,0.50861 -0.83565,0.56 -6.93891,0.56 -5.24038,0 -6.6879,-0.0881 -6.57427,-0.4 z m 27.27389,-112.32 c -0.0818,-0.22 -5.1025,-14.44 -11.15703,-31.6 -6.05456,-17.16 -34.57801,-97.99306 -63.3855,-179.62902 C 329.76112,148.97504 306.2383,82.141092 306.29568,82.091118 306.47475,81.935156 390.89315,52.178676 396.8,50.189428 427.26083,39.93113 450.68416,34.445901 472,32.579229 c 7.18355,-0.629078 26.69792,-0.530662 33.6,0.169453 14.99008,1.520528 28.33725,4.778944 42.4,10.351021 16.59322,6.57473 31.2241,15.336228 45.60787,27.311616 5.17123,4.305386 16.55437,15.683454 20.78023,20.770983 15.54009,18.708828 27.68438,40.350198 37.54038,66.897698 14.74874,39.7263 18.26704,77.2803 10.74765,114.72 -4.54906,22.65025 -13.75392,44.61653 -25.93376,61.88778 -9.38215,13.30407 -24.04557,28.23338 -37.82416,38.51008 -16.39296,12.22659 -40.50743,24.25629 -72.34189,36.08842 -6.23981,2.31917 -92.85677,32.95373 -93.17427,32.95373 -0.0782,0 -0.20909,-0.18 -0.29091,-0.4 z M 486.88,377.34413 c 31.07018,-10.97859 38.10957,-13.78243 52.8,-21.03052 18.51248,-9.13386 29.50746,-16.68167 40.98851,-28.1377 16.06346,-16.02843 26.50675,-33.66711 31.64954,-53.45591 5.86118,-22.55314 5.16694,-45.67323 -2.22931,-74.24 C 600.08109,161.82721 582.37638,129.0872 560.74422,109.23077 541.35862,91.436501 520.49965,82.328968 491.84,79.145518 c -6.95587,-0.772646 -22.52173,-0.765302 -29.6,0.01395 -14.21786,1.565277 -28.3464,4.777789 -46.72,10.623063 -6.07686,1.933257 -46.7823,16.253099 -47.09786,16.568629 -0.11081,0.11083 21.87152,62.75623 48.84964,139.212 l 49.05113,139.0105 2.11856,-0.73146 c 1.16519,-0.4023 9.46253,-3.32643 18.43853,-6.49808 z"
     id="path845" />
</svg>
