<?xml version="1.0" encoding="UTF-8" standalone="no"?>
<svg
   xmlns:dc="http://purl.org/dc/elements/1.1/"
   xmlns:cc="http://creativecommons.org/ns#"
   xmlns:rdf="http://www.w3.org/1999/02/22-rdf-syntax-ns#"
   xmlns:svg="http://www.w3.org/2000/svg"
   xmlns="http://www.w3.org/2000/svg"
   xmlns:sodipodi="http://sodipodi.sourceforge.net/DTD/sodipodi-0.dtd"
   xmlns:inkscape="http://www.inkscape.org/namespaces/inkscape"
   width="6.8352599mm"
   height="4.0992799mm"
   viewBox="0 0 6.8352601 4.0992797"
   version="1.1"
   id="svg1712"
   inkscape:version="1.0.1 (0767f8302a, 2020-10-17)"
   sodipodi:docname="logo10.svg">
  <style
     id="style2275"></style>
  <defs
     id="defs1706">
    <clipPath
       id="Clip31">
      <path
         d="M 0,0 H 114.379 V 125.025 H 0 Z"
         transform="translate(3679.73,2799.29)"
         id="path100" />
    </clipPath>
    <clipPath
       id="Clip32">
      <path
         d="M 0,0 H 114.379 V 125.025 H 0 Z"
         transform="translate(3679.73,2799.29)"
         id="path103" />
    </clipPath>
    <clipPath
       id="Clip33">
      <path
         d="M 0,0 H 114.379 V 125.025 H 0 Z"
         transform="translate(3679.73,2799.29)"
         id="path106" />
    </clipPath>
    <clipPath
       id="Clip34">
      <path
         d="M 0,0 H 125.71 V 134.913 H 0 Z"
         transform="translate(3674.04,2795.62)"
         id="path109" />
    </clipPath>
    <clipPath
       id="Clip26">
      <path
         d="M 0,0 H 126.072 V 70.6528 H 0 Z"
         transform="translate(3829.67,2758.92)"
         id="path85" />
    </clipPath>
    <clipPath
       id="Clip27">
      <path
         d="M 0,0 H 126.072 V 70.6528 H 0 Z"
         transform="translate(3829.67,2758.92)"
         id="path88" />
    </clipPath>
    <clipPath
       id="Clip28">
      <path
         d="M 0,0 H 148.737 V 82.1521 H 0 Z"
         transform="translate(3552.78,2972.46)"
         id="path91" />
    </clipPath>
    <clipPath
       id="Clip29">
      <path
         d="M 0,0 H 120.28 V 33.6122 H 0 Z"
         transform="translate(3581.24,2997.92)"
         id="path94" />
    </clipPath>
    <clipPath
       id="Clip30">
      <path
         d="M 0,0 H 120.28 V 33.6122 H 0 Z"
         transform="translate(3581.24,2997.92)"
         id="path97" />
    </clipPath>
  </defs>
  <sodipodi:namedview
     id="base"
     pagecolor="#ffffff"
     bordercolor="#666666"
     borderopacity="1.0"
     inkscape:pageopacity="0.0"
     inkscape:pageshadow="2"
     inkscape:zoom="0.35"
     inkscape:cx="1081.683"
     inkscape:cy="92.237981"
     inkscape:document-units="mm"
     inkscape:current-layer="layer1"
     inkscape:document-rotation="0"
     showgrid="false"
     fit-margin-top="0"
     fit-margin-left="0"
     fit-margin-right="0"
     fit-margin-bottom="0"
     inkscape:window-width="1848"
     inkscape:window-height="1016"
     inkscape:window-x="72"
     inkscape:window-y="27"
     inkscape:window-maximized="1" />
  <metadata
     id="metadata1709">
    <rdf:RDF>
      <cc:Work
         rdf:about="">
        <dc:format>image/svg+xml</dc:format>
        <dc:type
           rdf:resource="http://purl.org/dc/dcmitype/StillImage" />
        <dc:title></dc:title>
      </cc:Work>
    </rdf:RDF>
  </metadata>
  <g
     inkscape:label="Calque 1"
     inkscape:groupmode="layer"
     id="layer1"
     transform="translate(180.36195,-123.76203)">
    <path
       style="fill:black;fill-opacity:1;fill-rule:nonzero;stroke:none;stroke-width:0.352777"
       id=" path10972"
       d="m -180.29215,127.84401 c -0.024,-0.0123 -0.0379,-0.0254 -0.0515,-0.0473 l -0.0183,-0.03 v -1.95495 -1.95513 l 0.0183,-0.03 c 0.0134,-0.0222 0.0275,-0.0349 0.0515,-0.0473 l 0.0332,-0.0173 h 3.31467 3.31459 l 0.0332,0.0173 c 0.024,0.0123 0.0379,0.0254 0.0515,0.0473 l 0.0183,0.03 v 1.95513 1.95495 l -0.0183,0.03 c -0.0134,0.0219 -0.0275,0.0349 -0.0515,0.0473 l -0.0332,0.0173 h -3.31459 -3.31467 z m 0.89683,-0.40435 c 0.0275,-0.0113 0.0467,-0.04 0.051,-0.0767 0.007,-0.0554 -0.0148,-0.0893 -0.085,-0.13723 -0.0405,-0.0275 -0.0533,-0.0524 -0.0409,-0.0788 0.0102,-0.0219 0.0409,-0.0251 0.0665,-0.007 0.0176,0.0123 0.0198,0.0131 0.0339,0.004 0.0198,-0.013 0.019,-0.03 0,-0.0462 -0.0427,-0.0335 -0.0959,-0.0314 -0.13289,0.006 -0.0219,0.0215 -0.0233,0.0265 -0.0233,0.0587 0,0.0506 0.013,0.0731 0.0654,0.11176 0.0247,0.0183 0.0492,0.0392 0.0544,0.0469 0.0155,0.0219 0.0123,0.0511 -0.007,0.0664 -0.0205,0.0159 -0.0405,0.0123 -0.0652,-0.0106 -0.0166,-0.0159 -0.0176,-0.0159 -0.0342,-0.006 -0.0219,0.0134 -0.024,0.0272 -0.006,0.0462 0.0289,0.0314 0.0825,0.0418 0.12468,0.024 v 0 z m 0.76151,-0.004 c 0.0162,-0.008 0.0282,-0.0208 0.037,-0.0392 0.0123,-0.0254 0.0131,-0.0349 0.0116,-0.17124 v -0.14425 h -0.0219 -0.0215 l -0.004,0.1427 c -0.004,0.12919 -0.004,0.1439 -0.0148,0.15564 -0.0159,0.0176 -0.0506,0.0173 -0.0695,0 -0.0145,-0.0134 -0.0145,-0.0155 -0.0145,-0.14679 0,-0.14739 0,-0.15684 -0.0339,-0.15314 h -0.0183 v 0.13561 c 0,0.1422 0,0.16757 0.0247,0.1971 0.0268,0.0342 0.0846,0.0441 0.12799,0.0222 v 0 z m 0.88138,0 c 0.031,-0.0155 0.0452,-0.0388 0.0484,-0.0779 0.004,-0.0516 -0.0134,-0.0822 -0.07,-0.12249 -0.0504,-0.0357 -0.068,-0.0617 -0.0586,-0.0864 0.0102,-0.0265 0.0441,-0.031 0.0708,-0.01 0.0155,0.012 0.0173,0.0123 0.0314,0.004 0.0198,-0.013 0.019,-0.03 0,-0.0462 -0.0409,-0.0321 -0.0938,-0.0314 -0.13017,0 -0.0198,0.0183 -0.0226,0.024 -0.025,0.0576 -0.004,0.0493 0.0113,0.0768 0.0641,0.11525 0.049,0.0358 0.0641,0.055 0.0641,0.0807 0,0.0148 -0.005,0.0236 -0.0169,0.0335 -0.0205,0.0155 -0.0405,0.0123 -0.0652,-0.0106 -0.0166,-0.0155 -0.0176,-0.0159 -0.0339,-0.006 -0.0219,0.0134 -0.024,0.0272 -0.006,0.0462 0.03,0.0328 0.0877,0.0422 0.12802,0.0215 v 0 z m 1.10864,0 c 0.0318,-0.0162 0.0456,-0.0427 0.0456,-0.0865 0,-0.0535 -0.0166,-0.0788 -0.0826,-0.12294 -0.0339,-0.0226 -0.0481,-0.0409 -0.0481,-0.0618 0,-0.0349 0.0392,-0.049 0.0695,-0.0254 0.0201,0.0155 0.024,0.0155 0.0417,-0.004 l 0.0152,-0.0155 -0.0226,-0.0208 c -0.0558,-0.0512 -0.1457,-0.0226 -0.15649,0.0495 -0.008,0.0507 0.01,0.0816 0.0732,0.12837 0.05,0.037 0.0656,0.0618 0.0558,0.0894 -0.012,0.0346 -0.0535,0.037 -0.0869,0.006 -0.0131,-0.012 -0.0145,-0.012 -0.0293,-0.004 -0.009,0.006 -0.0155,0.0148 -0.0155,0.0212 0,0.0109 0.024,0.037 0.0462,0.0493 0.0198,0.0106 0.069,0.009 0.0943,-0.005 v 0 z m 1.30803,0 c 0.0109,-0.008 0.0265,-0.0219 0.0332,-0.0314 0.012,-0.0166 0.013,-0.025 0.013,-0.16954 v -0.15209 h -0.0219 -0.0215 l -0.004,0.13871 c 0,0.0763 -0.006,0.14358 -0.008,0.14962 -0.007,0.0145 -0.0236,0.0226 -0.0439,0.0226 -0.0201,0 -0.037,-0.009 -0.0437,-0.0226 -0.004,-0.006 -0.006,-0.0733 -0.008,-0.14962 l -0.004,-0.13871 h -0.0219 -0.0215 v 0.13564 c 0,0.0745 0,0.1445 0,0.15544 0.004,0.0247 0.0307,0.0562 0.0552,0.067 0.03,0.013 0.0724,0.0106 0.0959,-0.005 v 0 z m 1.41743,0.004 c 0.0324,-0.0162 0.0495,-0.046 0.0495,-0.0858 0,-0.0442 -0.0176,-0.0775 -0.0539,-0.10248 -0.0564,-0.0387 -0.0756,-0.0595 -0.0756,-0.0816 0,-0.0388 0.0375,-0.0527 0.0708,-0.0265 0.0183,0.0145 0.0296,0.0113 0.0426,-0.009 0.008,-0.0123 0,-0.0257 -0.0236,-0.0439 -0.0222,-0.0166 -0.0805,-0.0173 -0.10471,0 -0.048,0.0314 -0.0551,0.10692 -0.0145,0.15137 0.007,0.008 0.0289,0.0257 0.0474,0.0392 0.0446,0.0328 0.0551,0.0464 0.0552,0.0724 4e-5,0.025 -0.004,0.0321 -0.0226,0.0422 -0.0176,0.01 -0.0401,0.004 -0.0577,-0.0148 -0.0176,-0.019 -0.0247,-0.0183 -0.0426,0 l -0.0145,0.0155 0.012,0.0162 c 0.0275,0.037 0.0884,0.0502 0.13184,0.0286 v 0 z m -6.05734,-0.0708 v -0.0756 h 0.019 c 0.0215,0 0.019,-0.006 0.0561,0.10054 0.0166,0.0474 0.0176,0.0494 0.0374,0.0513 0.0396,0.004 0.0401,0 0.0134,-0.0737 -0.0134,-0.0379 -0.0247,-0.0736 -0.0247,-0.0793 0,-0.006 0.007,-0.0166 0.0162,-0.0251 0.0478,-0.044 0.0427,-0.13515 -0.009,-0.16743 -0.0198,-0.0123 -0.0307,-0.0145 -0.0903,-0.0145 h -0.0678 v 0.18027 0.18034 h 0.0243 0.0247 v -0.0756 0 z m 0,-0.14252 c 0,-0.005 -0.004,-0.0265 0,-0.0477 v -0.0392 h 0.0353 c 0.0442,-0.004 0.0604,0.0106 0.0604,0.0481 0,0.0362 -0.0155,0.0493 -0.0587,0.0493 -0.0229,0 -0.0353,-0.004 -0.0374,-0.008 v 0 z m 0.39493,0.19328 v -0.0219 l -0.0585,-0.004 -0.0585,-0.004 v -0.0554 -0.0555 l 0.0339,-0.004 0.0339,-0.004 v -0.0226 -0.0233 h -0.0357 -0.0357 v -0.0446 -0.0447 h 0.0449 c 0.0247,0 0.0478,0 0.0512,0 0.004,0 0.01,0 0.0145,-0.004 0.006,0 0.007,-0.009 0.006,-0.024 v -0.0229 h -0.0832 -0.0832 v 0.17254 c 0,0.0949 0,0.17607 0,0.18045 0.004,0.006 0.0229,0.008 0.0879,0.006 h 0.0848 v -0.0219 0 z m 0.47657,0 v -0.0229 l -0.0586,-0.004 -0.0586,-0.004 v -0.0554 -0.0555 h 0.0353 c 0.0374,0 0.0473,-0.0113 0.0387,-0.0379 -0.004,-0.01 -0.01,-0.0123 -0.0387,-0.0141 h -0.0353 v -0.0447 -0.0447 l 0.0512,-7e-5 c 0.0279,-7e-5 0.0548,-0.004 0.0593,-0.005 0.005,-0.004 0.007,-0.0134 0.006,-0.0265 v -0.0212 h -0.0762 c -0.0509,0 -0.079,0 -0.0847,0.005 -0.007,0.006 -0.008,0.0396 -0.008,0.17798 0,0.0939 0,0.17265 0.004,0.17491 0.004,0.004 0.0426,0.004 0.0897,0.004 h 0.0857 v -0.0229 0 z m 0.10552,-0.0229 0.01,-0.0431 h 0.0383 0.0384 l 0.006,0.0268 c 0.0169,0.0683 0.0141,0.0633 0.0422,0.0654 0.0212,0 0.0258,-8e-5 0.0258,-0.009 0,-0.0222 -0.0819,-0.3447 -0.0886,-0.34908 -0.0116,-0.007 -0.0387,-0.005 -0.0462,0.004 -0.007,0.008 -0.0871,0.32717 -0.0871,0.34618 0,0.008 0.006,0.009 0.0257,0.008 h 0.0258 l 0.01,-0.0432 v 0 z m 0.0247,-0.11251 c 0,-0.006 0.004,-0.0208 0.006,-0.0325 0.004,-0.012 0.007,-0.0293 0.01,-0.0387 0.006,-0.0268 0.0148,-0.0198 0.0219,0.0183 0.004,0.019 0.008,0.0417 0.0106,0.0493 0.004,0.0123 0,0.0141 -0.0219,0.0141 -0.0198,0 -0.0254,-0.004 -0.0254,-0.0106 z m 0.72746,0.1456 c 0.0765,-0.0431 0.0916,-0.24903 0.0236,-0.31874 -0.0247,-0.025 -0.053,-0.0332 -0.10996,-0.0307 h -0.0463 v 0.18038 0.18026 h 0.0563 c 0.046,0 0.0605,-0.004 0.0797,-0.0134 v 0 z m -0.0837,-0.044 c 0,-0.004 -0.004,-0.0616 0,-0.12722 0,-0.11306 0.004,-0.11955 0.0145,-0.12389 0.0229,-0.008 0.0544,0.007 0.0675,0.0342 0.0282,0.0574 0.0166,0.18415 -0.0187,0.21223 -0.0183,0.0145 -0.0563,0.0173 -0.0611,0.005 v 0 z m 0.39476,0.0449 c 0.004,-0.007 0.004,-0.0176 1e-4,-0.0247 -0.004,-0.0106 -0.0106,-0.0124 -0.0636,-0.0141 h -0.0597 v -0.0555 -0.0555 l 0.0371,-0.004 0.037,-0.004 v -0.0219 -0.0219 l -0.037,-0.004 -0.0371,-0.004 v -0.0431 -0.0432 h 0.0432 c 0.0236,0 0.0492,-0.004 0.0566,-0.005 0.0166,-0.004 0.0229,-0.0226 0.0148,-0.0396 -0.006,-0.0116 -0.0123,-0.0123 -0.0833,-0.0123 -0.0695,0 -0.0772,0 -0.0831,0.012 -0.007,0.013 -0.009,0.3248 -0.004,0.34202 0.004,0.008 0.0166,0.01 0.089,0.01 0.0798,0 0.0854,0 0.0891,-0.0123 v 0 z m 0.45924,-0.0342 0.009,-0.0431 h 0.0396 0.0396 l 0.01,0.0431 0.01,0.0432 h 0.0265 c 0.025,0 0.0265,0 0.0254,-0.0155 0,-0.009 -0.0187,-0.0908 -0.0418,-0.18062 l -0.0409,-0.16333 h -0.0222 c -0.013,0 -0.0247,0 -0.0286,0.006 -0.006,0.008 -0.0882,0.33016 -0.0882,0.34738 0,0.007 0.006,0.009 0.0265,0.008 h 0.0265 l 0.009,-0.0431 v 0 z m 0.0247,-0.10711 c 0,-0.0155 0.0208,-0.0932 0.0247,-0.0932 0.004,0 0.0243,0.0776 0.0243,0.0932 0,0.004 -0.0109,0.006 -0.0243,0.006 -0.0141,0 -0.0247,-0.004 -0.0247,-0.006 z m 0.24896,0.14362 c 0,-0.005 0.004,-0.04 0.004,-0.0774 v -0.0677 h 0.019 c 0.0187,0 0.0205,0.004 0.0455,0.0759 l 0.0265,0.074 h 0.0268 c 0.0145,0 0.0268,-0.004 0.0268,-0.006 -7e-5,-0.004 -0.0113,-0.0387 -0.0247,-0.0785 l -0.024,-0.0724 0.019,-0.0205 c 0.024,-0.0251 0.0321,-0.0466 0.0321,-0.0839 0,-0.04 -0.0166,-0.0688 -0.0497,-0.0859 -0.024,-0.012 -0.0349,-0.0141 -0.0889,-0.0123 h -0.0616 v 0.17254 c 0,0.0949 0,0.176 0,0.18031 0.004,0.0113 0.0444,0.01 0.049,0 v 0 z m 0.004,-0.24913 v -0.0493 h 0.0339 c 0.0426,0 0.0586,0.0134 0.0586,0.0493 0,0.0362 -0.0159,0.0493 -0.0586,0.0493 h -0.0339 z m 0.3096,0.10632 v -0.1526 h 0.0183 c 0.0438,-0.004 0.0471,-0.006 0.0451,-0.031 v -0.0226 h -0.0893 -0.0894 v 0.0226 c 0,0.0247 0,0.0268 0.0451,0.031 h 0.0183 v 0.15254 0.15258 h 0.0247 0.0247 v -0.15258 0 z m 0.51371,0.13561 c 0,-0.009 0.007,-0.0296 0.0109,-0.0447 l 0.007,-0.0275 h 0.0367 0.0366 l 0.008,0.0275 c 0.004,0.0148 0.01,0.0349 0.0123,0.0431 0.004,0.013 0.009,0.0159 0.0307,0.0173 0.0173,0 0.0265,0 0.0265,-0.006 0,-0.0162 -0.0821,-0.34223 -0.088,-0.34964 -0.004,-0.005 -0.0159,-0.007 -0.0286,-0.006 h -0.0222 l -0.0439,0.17569 c -0.024,0.0967 -0.0427,0.17773 -0.0414,0.18034 0,0.004 0.0141,0.005 0.0268,0.005 0.0215,0 0.0247,0 0.0282,-0.0166 v 0 z m 0.0335,-0.14485 c 0,-0.0166 0.0155,-0.0839 0.0205,-0.0887 0.004,-0.004 0.0148,0.0353 0.0205,0.0739 l 0.004,0.0289 h -0.0226 c -0.0187,0 -0.0222,0 -0.0222,-0.0141 v 0 z m 0.4687,0.14792 c 0.0434,-0.0293 0.0598,-0.0878 0.0375,-0.13458 -0.007,-0.0152 -0.0155,-0.0314 -0.0205,-0.0371 -0.006,-0.008 -0.004,-0.0141 0.007,-0.0293 0.0106,-0.0148 0.0148,-0.0275 0.0145,-0.0518 0,-0.0709 -0.0378,-0.0986 -0.12996,-0.0955 -0.0515,0 -0.0539,0.004 -0.0581,0.0173 -0.005,0.019 -0.007,0.29097 0,0.32205 l 0.004,0.0229 h 0.063 c 0.0552,0 0.0656,0 0.0836,-0.0141 v 0 z m -0.0963,-0.0437 c 0,-0.005 -0.004,-0.03 0,-0.057 v -0.0488 h 0.03 c 0.0254,0 0.0328,0.004 0.0453,0.0183 0.0123,0.0148 0.0148,0.0222 0.012,0.0456 -0.004,0.0357 -0.0208,0.0499 -0.0576,0.0499 -0.0173,0 -0.0286,-0.004 -0.0307,-0.008 v -3e-5 z m 0,-0.16228 c -0.004,-0.004 -0.004,-0.0233 -0.004,-0.0463 v -0.0422 h 0.0335 c 0.0275,0 0.0353,0.004 0.0431,0.0141 0.024,0.0349 0,0.0787 -0.0446,0.0787 -0.013,0 -0.0257,0 -0.0282,-0.004 v 0 z m 0.26095,0.14281 0.004,-0.074 h 0.0162 c 0.0198,-0.004 0.0265,0.008 0.0512,0.0851 0.01,0.0289 0.0198,0.0558 0.0229,0.0601 0.004,0.004 0.0166,0.008 0.03,0.008 0.0148,0 0.024,-0.004 0.024,-0.008 0,-0.004 -0.0116,-0.0405 -0.0257,-0.0809 l -0.0257,-0.0732 0.0169,-0.012 c 0.0457,-0.0332 0.0517,-0.1179 0.0116,-0.16041 -0.0212,-0.0226 -0.048,-0.0293 -0.11359,-0.0293 -0.0468,0 -0.0545,0 -0.0601,0.012 -0.007,0.013 -0.009,0.32484 -0.004,0.3423 0.004,0.007 0.01,0.01 0.0265,0.008 h 0.0226 l 0.004,-0.074 v 0 z m 0.004,-0.13667 c -0.004,-0.004 -0.004,-0.0229 -0.004,-0.046 0,-0.0489 0.007,-0.0558 0.0483,-0.0503 0.0455,0.006 0.0648,0.0495 0.0374,0.0842 -0.0106,0.0141 -0.0176,0.0162 -0.0451,0.0162 -0.0183,0 -0.0346,0 -0.0366,-0.004 v 0 z m 0.54462,0.15614 c 0.012,-0.03 0.0247,-0.0541 0.0282,-0.0538 0.004,0 0.0145,0.0226 0.0247,0.0483 0.0106,0.0265 0.0208,0.051 0.0236,0.0553 0.006,0.01 0.0536,0.0102 0.0536,0 0,-0.004 -0.0148,-0.0431 -0.0342,-0.0872 -0.0183,-0.0441 -0.0339,-0.0862 -0.0339,-0.0936 0,-0.007 0.0141,-0.046 0.0314,-0.0859 0.0173,-0.04 0.0296,-0.0765 0.0282,-0.0813 0,-0.005 -0.0116,-0.008 -0.0222,-0.008 -0.0215,0 -0.0289,0.0102 -0.0504,0.0663 -0.008,0.0212 -0.0166,0.0379 -0.0198,0.0366 -0.004,0 -0.0145,-0.0236 -0.0247,-0.0509 -0.0183,-0.0467 -0.0205,-0.0492 -0.0401,-0.0511 -0.0116,0 -0.0236,0 -0.0272,0.004 -0.004,0.004 0.006,0.0346 0.0289,0.0898 l 0.0349,0.0836 -0.037,0.087 c -0.0208,0.0478 -0.037,0.0895 -0.037,0.0928 0,0.004 0.0116,0.005 0.0265,0.004 h 0.0265 l 0.0222,-0.0545 v 0 z m 0.36848,0.0346 v -0.0229 l -0.0586,-0.004 -0.0585,-0.004 v -0.0555 -0.0555 h 0.0353 c 0.0374,0 0.0473,-0.0113 0.0387,-0.0378 -0.004,-0.01 -0.0106,-0.0124 -0.0387,-0.0141 h -0.0353 v -0.0447 -0.0447 l 0.0511,-4e-5 c 0.0282,-3e-5 0.0548,-0.004 0.0593,-0.005 0.005,-0.004 0.007,-0.0134 0.006,-0.0265 v -0.0215 h -0.0762 c -0.0509,0 -0.079,0 -0.0847,0.005 -0.007,0.006 -0.008,0.0396 -0.008,0.17791 0,0.094 0,0.17268 0.004,0.17494 0.004,0.004 0.0426,0.004 0.0897,0.004 h 0.0856 v -0.0233 0 z m 0.22803,0 v -0.0229 l -0.0524,-0.004 -0.0523,-0.004 -0.004,-0.14919 c 0,-0.0986 -0.006,-0.15155 -0.0102,-0.15617 -0.004,-0.004 -0.0148,-0.006 -0.0243,-0.005 h -0.0176 v 0.17251 c 0,0.0949 0,0.176 0,0.1803 0.004,0.006 0.0247,0.008 0.0837,0.008 h 0.0807 v -0.0229 0 z m 0.22617,0 v -0.0219 l -0.0555,-0.004 -0.0555,-0.004 v -0.14739 c 0,-0.0962 -0.004,-0.15032 -0.008,-0.15564 -0.01,-0.012 -0.0349,-0.0102 -0.0422,0.004 -0.007,0.0131 -0.009,0.32484 -0.004,0.34216 0.004,0.009 0.0148,0.01 0.0848,0.009 h 0.081 v -0.0219 0 z m 0.23424,0 v -0.0219 l -0.0617,-0.004 -0.0616,-0.004 v -0.0555 -0.0555 l 0.037,-0.004 0.0371,-0.004 v -0.0219 -0.0219 h -0.0317 c -0.0176,0 -0.0349,-0.006 -0.0388,-0.0102 -0.004,-0.005 -0.006,-0.0236 -0.005,-0.0445 v -0.0362 l 0.0524,-0.004 c 0.059,-0.004 0.0678,-0.007 0.0678,-0.0275 0,-0.0254 -0.012,-0.0286 -0.0934,-0.0268 h -0.0761 v 0.18045 0.18051 h 0.0879 0.088 v -0.0219 0 z m -5.52439,-0.39278 c 0.0451,-0.0446 0.0457,-0.0522 0.004,-0.0498 h -0.0318 l -0.0201,0.0366 c -0.0113,0.0201 -0.0187,0.0387 -0.0173,0.0417 0.008,0.0134 0.0321,0.004 0.0654,-0.03 v 0 z m 3.32511,0.0258 c 0,-0.004 -0.007,-0.0219 -0.0183,-0.0401 -0.0187,-0.0317 -0.0219,-0.0339 -0.0472,-0.0357 -0.0148,0 -0.0296,0 -0.0321,0.004 -0.004,0.004 0.0102,0.0219 0.0307,0.0441 0.0275,0.0296 0.0396,0.0384 0.0505,0.0366 0.008,0 0.0148,-0.005 0.0162,-0.008 v 0 z m -1.90881,-0.45904 c 0.007,-0.007 0.0123,-0.0173 0.0123,-0.0229 -4e-5,-0.006 -0.11381,-0.24077 -0.2527,-0.52193 -0.13896,-0.2811 -0.25266,-0.51195 -0.25266,-0.51308 0,0 0.0265,-0.0145 0.0588,-0.0296 0.0829,-0.0388 0.1348,-0.0751 0.19185,-0.13455 0.0789,-0.0823 0.12449,-0.17152 0.15074,-0.29549 0.0173,-0.0817 0.0183,-0.23555 0.004,-0.32826 -0.0493,-0.29167 -0.22846,-0.46852 -0.54663,-0.53968 -0.1397,-0.031 -0.16351,-0.0325 -0.67942,-0.0353 -0.43741,-0.004 -0.48729,0 -0.5008,0.007 l -0.0148,0.0102 v 1.19842 1.1985 l 0.0141,0.009 c 0.012,0.009 0.10862,0.01 0.90914,0.01 0.88721,0 0.8955,0 0.90774,-0.0124 v 0 z m 2.30487,-0.004 c 0.007,-0.009 0.0113,-0.0208 0.0106,-0.0265 0,-0.006 -0.16245,-0.54102 -0.35764,-1.1903 -0.27485,-0.91426 -0.35783,-1.18287 -0.36788,-1.19123 -0.012,-0.01 -0.0357,-0.0106 -0.2982,-0.0106 -0.26268,0 -0.28625,0 -0.29792,0.0106 -0.01,0.008 -0.0685,0.19608 -0.24159,0.77206 -0.12587,0.41871 -0.28543,0.94928 -0.35475,1.17905 -0.0691,0.2298 -0.1258,0.42587 -0.1258,0.43582 0,0.04 -0.0747,0.037 1.02408,0.037 h 0.99674 l 0.013,-0.0162 z m 1.38716,0 c 0.32628,-0.048 0.52028,-0.17215 0.6065,-0.38788 0.0673,-0.16859 0.0691,-0.40146 0.005,-0.56846 -0.0409,-0.10605 -0.13304,-0.2116 -0.23644,-0.27108 -0.0293,-0.0166 -0.0537,-0.0339 -0.0538,-0.0375 0,-0.004 0.0198,-0.0205 0.0445,-0.037 0.17964,-0.12202 0.26028,-0.31048 0.23305,-0.54437 -0.0332,-0.28434 -0.20183,-0.4632 -0.50888,-0.53936 -0.1184,-0.0293 -0.13907,-0.0307 -0.673,-0.0332 -0.50539,-0.004 -0.50655,-0.004 -0.51929,0.0102 l -0.0131,0.0131 v 1.19556 1.1955 l 0.0141,0.01 c 0.0123,0.009 0.0627,0.0102 0.52236,0.007 0.43695,-0.004 0.51848,-0.004 0.57937,-0.013 v 0 z" />
  </g>
</svg>
