<?xml version="1.0" encoding="UTF-8" standalone="no"?>
<svg
   xmlns:dc="http://purl.org/dc/elements/1.1/"
   xmlns:cc="http://creativecommons.org/ns#"
   xmlns:rdf="http://www.w3.org/1999/02/22-rdf-syntax-ns#"
   xmlns:svg="http://www.w3.org/2000/svg"
   xmlns="http://www.w3.org/2000/svg"
   id="svg6718"
   version="1.1"
   viewBox="0 0 25.253892 14.448639"
   height="14.448639mm"
   width="25.253893mm">
  <defs
     id="defs6712" />
  <metadata
     id="metadata6715">
    <rdf:RDF>
      <cc:Work
         rdf:about="">
        <dc:format>image/svg+xml</dc:format>
        <dc:type
           rdf:resource="http://purl.org/dc/dcmitype/StillImage" />
        <dc:title></dc:title>
      </cc:Work>
    </rdf:RDF>
  </metadata>
  <g
     transform="translate(-25.926625,-273.90068)"
     id="layer1">
    <g
       style="display:inline;fill:#000000"
       transform="matrix(0.35165239,0,0,0.35165239,5.6871764,301.4067)"
       id="layer1-2">
      <g
         style="fill:#000000"
         transform="matrix(0.59697999,0,0,0.59697999,103.80373,54.789438)"
         id="g4544">
        <g
           style="fill:#000000"
           id="g4657">
          <g
             style="fill:#000000"
             id="g4635">
            <path
               id="ellipse4517"
               d="m -34.554688,-188.39062 c 0,-9.38673 -2.315557,-17.8983 -6.132812,-24.13868 -3.817255,-6.24038 -9.226982,-10.27343 -15.326172,-10.27343 -6.09919,0 -11.508917,4.03305 -15.326172,10.27343 -3.817254,6.24038 -6.130859,14.75195 -6.130859,24.13868 0,9.38672 2.313605,17.90024 6.130859,24.14062 3.817255,6.24038 9.226982,10.27344 15.326172,10.27344 6.09919,0 11.508917,-4.03306 15.326172,-10.27344 3.817255,-6.24038 6.132813,-14.7539 6.132812,-24.14062 z m -2.097656,0 c 0,9.03995 -2.254828,17.20974 -5.824218,23.04492 -3.569391,5.83517 -8.364659,9.27148 -13.53711,9.27148 -5.172451,0 -9.965765,-3.43631 -13.535156,-9.27148 -3.569391,-5.83518 -5.824219,-14.00497 -5.824219,-23.04492 0,-9.03996 2.254828,-17.20975 5.824219,-23.04493 3.569391,-5.83517 8.362705,-9.26953 13.535156,-9.26953 5.172451,0 9.967719,3.43436 13.53711,9.26953 3.56939,5.83518 5.824218,14.00497 5.824218,23.04493 z"
               style="color:#000000;font-style:normal;font-variant:normal;font-weight:normal;font-stretch:normal;font-size:medium;line-height:normal;font-family:sans-serif;text-indent:0;text-align:start;text-decoration:none;text-decoration-line:none;text-decoration-style:solid;text-decoration-color:#000000;letter-spacing:normal;word-spacing:normal;text-transform:none;writing-mode:lr-tb;direction:ltr;baseline-shift:baseline;text-anchor:start;white-space:normal;clip-rule:nonzero;display:inline;overflow:visible;visibility:visible;opacity:1;isolation:auto;mix-blend-mode:normal;color-interpolation:sRGB;color-interpolation-filters:linearRGB;solid-color:#000000;solid-opacity:1;fill:#000000;fill-opacity:1;fill-rule:nonzero;stroke:none;stroke-width:2.09787512;stroke-linecap:round;stroke-linejoin:round;stroke-miterlimit:4;stroke-dasharray:none;stroke-dashoffset:0;stroke-opacity:1;color-rendering:auto;image-rendering:auto;shape-rendering:auto;text-rendering:auto;enable-background:accumulate" />
            <g
               id="text4521"
               style="font-style:normal;font-weight:normal;font-size:1.44429278px;line-height:125%;font-family:sans-serif;letter-spacing:0px;word-spacing:0px;fill:#000000;fill-opacity:1;stroke:none;stroke-width:0.27080488px;stroke-linecap:butt;stroke-linejoin:miter;stroke-opacity:1"
               transform="rotate(90)"
               aria-label="S">
              <path
                 id="path4596"
                 style="font-style:normal;font-variant:normal;font-weight:normal;font-stretch:normal;font-size:25.99726868px;font-family:'Belgika 8th';-inkscape-font-specification:'Belgika 8th';letter-spacing:1.68932164px;fill:#000000;stroke-width:0.27080488px"
                 d="m -179.4205,61.303614 c -0.44195,0.181981 -0.70193,0.623935 -0.70193,1.065888 0,0.155984 0.026,0.28597 0.078,0.441954 0.28597,0.675929 0.70192,1.273866 1.22187,1.793811 1.01389,1.013894 2.44374,1.637828 4.00358,1.637828 3.11967,0 5.61541,-2.521735 5.61541,-5.641407 0,-1.481844 -0.57194,-3.171667 -2.07978,-4.263552 l -5.09547,-3.717609 c -0.51994,-0.389959 -1.06589,-1.42985 -1.06589,-2.027787 0,-1.377856 1.14388,-2.547733 2.54774,-2.547733 0.70192,0 1.32586,0.28597 1.8198,0.753921 0.25998,0.259973 0.41596,0.467951 0.51995,0.779918 0.18198,0.415956 0.62393,0.675929 1.06589,0.675929 0.15598,0 0.28597,-0.026 0.44195,-0.07799 0.41596,-0.181981 0.67593,-0.623934 0.67593,-1.065888 0,-0.129986 -0.026,-0.28597 -0.078,-0.441953 -0.23398,-0.57194 -0.59794,-1.065888 -1.06589,-1.507842 -0.83191,-0.831912 -2.05378,-1.377855 -3.37964,-1.377855 -2.67772,0 -4.8095,2.183771 -4.8095,4.809495 0,1.481844 0.83191,3.015683 1.97579,3.873593 l 5.09547,3.691612 c 0.80591,0.597937 1.16987,1.507841 1.16987,2.443743 0,1.871803 -1.50784,3.379645 -3.35364,3.379645 -0.9359,0 -1.79381,-0.363962 -2.41775,-0.987896 -0.28597,-0.311967 -0.51994,-0.649932 -0.70192,-1.065888 -0.18199,-0.441954 -0.59794,-0.701926 -1.06589,-0.701926 -0.12999,0 -0.28597,0.026 -0.41596,0.07799 z" />
            </g>
            <g
               id="text4525"
               style="font-style:normal;font-weight:normal;font-size:1.44429278px;line-height:125%;font-family:sans-serif;letter-spacing:0px;word-spacing:0px;fill:#000000;fill-opacity:1;stroke:none;stroke-width:0.27080488px;stroke-linecap:butt;stroke-linejoin:miter;stroke-opacity:1"
               aria-label="U">
              <path
                 id="path4593"
                 style="font-style:normal;font-variant:normal;font-weight:normal;font-stretch:normal;font-size:25.99726868px;font-family:'Belgika 8th';-inkscape-font-specification:'Belgika 8th';letter-spacing:1.68932164px;fill:#000000;stroke-width:0.27080488px"
                 d="m -48.746928,-206.58351 c -0.623935,0 -1.117883,0.51995 -1.117883,1.14388 v 10.91885 c 0,3.37965 -2.75571,6.13536 -6.161352,6.13536 -3.379645,0 -6.135356,-2.75571 -6.135356,-6.13536 v -10.91885 c 0,-0.62393 -0.519945,-1.14388 -1.14388,-1.14388 -0.623934,0 -1.117882,0.51995 -1.117882,1.14388 v 10.91885 c 0,4.65352 3.743607,8.39712 8.397118,8.39712 4.653511,0 8.423115,-3.7436 8.423115,-8.39712 v -10.91885 c 0,-0.62393 -0.519946,-1.14388 -1.14388,-1.14388 z" />
            </g>
          </g>
          <g
             style="fill:#000000"
             id="g4620">
            <path
               d="m -18.418547,-201.27665 q 0.260013,-0.26002 0.611029,-0.26002 0.364018,0 0.61103,0.26002 0.260012,0.24701 0.260012,0.61102 v 5.20025 q 0,1.17006 -0.585028,2.17111 -0.572027,1.00105 -1.573075,1.58607 -1.001048,0.57203 -2.184105,0.57203 -1.170056,0 -2.171104,-0.57203 -1.001047,-0.58502 -1.586075,-1.58607 -0.572028,-1.00105 -0.572028,-2.17111 v -5.20025 q 0,-0.36401 0.260013,-0.61102 0.260012,-0.26002 0.611029,-0.26002 0.351017,0 0.611029,0.26002 0.260013,0.24701 0.260013,0.61102 v 5.20025 q 0,1.07906 0.754036,1.84609 0.767036,0.75404 1.846088,0.75404 1.079052,0 1.833088,-0.75404 0.767036,-0.76703 0.767036,-1.84609 v -5.20025 q 0,-0.36401 0.247012,-0.61102 z"
               style="font-style:normal;font-variant:normal;font-weight:normal;font-stretch:normal;font-size:13.0006218px;line-height:131.3000083%;font-family:'Belgicka Molenbeek 5th';-inkscape-font-specification:'Belgicka Molenbeek 5th';letter-spacing:3.26197433px;word-spacing:0px;fill:#000000;fill-opacity:1;stroke:none;stroke-width:0.44320303px;stroke-linecap:butt;stroke-linejoin:miter;stroke-opacity:1"
               id="path4568" />
            <path
               d="m -4.8373292,-201.27665 q 0.2600125,-0.26002 0.6110293,-0.26002 0.3640174,0 0.6110292,0.26002 0.2600124,0.24701 0.2600124,0.61102 v 8.65842 q 0,0.20801 -0.091004,0.39002 -0.104005,0.19501 -0.2730131,0.32501 -0.1170056,0.078 -0.2470118,0.11701 -0.1170056,0.039 -0.2600124,0.039 -0.20801,0 -0.4030193,-0.104 -0.1820087,-0.091 -0.2990143,-0.26002 l -4.4982152,-6.4223 v 5.91528 q 0,0.36402 -0.2600124,0.62403 -0.2470118,0.24701 -0.6110292,0.24701 -0.351017,0 -0.61103,-0.24701 -0.247011,-0.26001 -0.247011,-0.62403 v -8.65842 q 0,-0.22101 0.091,-0.40301 0.104005,-0.19501 0.273013,-0.31202 0.117006,-0.078 0.234011,-0.11701 0.130006,-0.039 0.273013,-0.039 0.20801,0 0.3900193,0.10401 0.1950093,0.091 0.3120149,0.26001 l 4.4982151,6.42231 v -5.91529 q 0,-0.36401 0.2470118,-0.61102 z"
               style="font-style:normal;font-variant:normal;font-weight:normal;font-stretch:normal;font-size:13.0006218px;line-height:131.3000083%;font-family:'Belgicka Molenbeek 5th';-inkscape-font-specification:'Belgicka Molenbeek 5th';letter-spacing:3.26197433px;word-spacing:0px;fill:#000000;fill-opacity:1;stroke:none;stroke-width:0.44320303px;stroke-linecap:butt;stroke-linejoin:miter;stroke-opacity:1"
               id="path4570" />
            <path
               d="m 2.9955814,-201.27665 q 0.2600124,-0.26002 0.6110292,-0.26002 0.3640174,0 0.6110292,0.26002 0.2600125,0.24701 0.2600125,0.61102 v 8.65842 q 0,0.36402 -0.2600125,0.62403 -0.2470118,0.24701 -0.6110292,0.24701 -0.3510168,0 -0.6110292,-0.24701 -0.2470118,-0.26001 -0.2470118,-0.62403 v -8.65842 q 0,-0.36401 0.2470118,-0.61102 z"
               style="font-style:normal;font-variant:normal;font-weight:normal;font-stretch:normal;font-size:13.0006218px;line-height:131.3000083%;font-family:'Belgicka Molenbeek 5th';-inkscape-font-specification:'Belgicka Molenbeek 5th';letter-spacing:3.26197433px;word-spacing:0px;fill:#000000;fill-opacity:1;stroke:none;stroke-width:0.44320303px;stroke-linecap:butt;stroke-linejoin:miter;stroke-opacity:1"
               id="path4572" />
            <path
               d="m 9.5503725,-200.0546 q -0.2470118,-0.26001 -0.2470118,-0.61103 0,-0.36401 0.2470118,-0.61102 0.2600124,-0.26002 0.6240295,-0.26002 h 3.458166 3.471166 q 0.351017,0 0.611029,0.26002 0.260012,0.24701 0.260012,0.61102 0,0.35102 -0.260012,0.61103 -0.260012,0.24702 -0.611029,0.24702 h -2.600125 v 7.80037 q 0,0.36402 -0.260012,0.62403 -0.247012,0.24701 -0.611029,0.24701 -0.351017,0 -0.61103,-0.24701 -0.247011,-0.26001 -0.247011,-0.62403 v -7.80037 h -2.600125 q -0.3640171,0 -0.6240295,-0.24702 z"
               style="font-style:normal;font-variant:normal;font-weight:normal;font-stretch:normal;font-size:13.0006218px;line-height:131.3000083%;font-family:'Belgicka Molenbeek 5th';-inkscape-font-specification:'Belgicka Molenbeek 5th';letter-spacing:3.26197433px;word-spacing:0px;fill:#000000;fill-opacity:1;stroke:none;stroke-width:0.44320303px;stroke-linecap:butt;stroke-linejoin:miter;stroke-opacity:1"
               id="path4574" />
            <path
               d="m 28.891271,-201.27665 q 0.260013,0.24701 0.260013,0.61102 0,0.35102 -0.260013,0.61103 -0.247011,0.24702 -0.611029,0.24702 h -3.900186 v 2.60012 h 3.042145 q 0.351017,0 0.598029,0.26001 0.260012,0.26002 0.260012,0.61103 0,0.35102 -0.260012,0.61103 -0.247012,0.26001 -0.598029,0.26001 h -3.042145 v 2.60013 h 3.900186 q 0.364018,0 0.611029,0.26001 0.260013,0.24701 0.260013,0.61103 0,0.35102 -0.260013,0.61103 -0.247011,0.24701 -0.611029,0.24701 h -4.758227 q -0.312015,0 -0.598029,-0.24701 -0.273013,-0.24701 -0.273013,-0.62403 v -4.32921 -4.32921 q 0,-0.31201 0.247012,-0.58502 0.247012,-0.28602 0.62403,-0.28602 h 4.758227 q 0.364018,0 0.611029,0.26002 z"
               style="font-style:normal;font-variant:normal;font-weight:normal;font-stretch:normal;font-size:13.0006218px;line-height:131.3000083%;font-family:'Belgicka Molenbeek 5th';-inkscape-font-specification:'Belgicka Molenbeek 5th';letter-spacing:3.26197433px;word-spacing:0px;fill:#000000;fill-opacity:1;stroke:none;stroke-width:0.44320303px;stroke-linecap:butt;stroke-linejoin:miter;stroke-opacity:1"
               id="path4576" />
            <path
               d="m 36.32604,-192.86525 h 1.300062 q 0.663032,0 1.300062,-0.26001 0.650031,-0.26002 1.144055,-0.75404 1.014048,-1.01405 1.014048,-2.45712 -0.013,-1.44307 -1.014048,-2.45712 -1.014049,-1.01404 -2.444117,-1.01404 H 36.32604 Z m -1.729083,0.85804 v -8.65842 q 0,-0.37701 0.273013,-0.62403 0.286014,-0.24701 0.598029,-0.24701 h 2.158103 q 1.014048,0 1.963094,0.39002 0.962046,0.39002 1.703081,1.14406 0.754036,0.74103 1.144055,1.70308 0.390019,0.94904 0.390019,1.96309 0,1.01405 -0.390019,1.9761 -0.390019,0.94904 -1.144055,1.70308 -0.741035,0.74103 -1.703081,1.13105 -0.962046,0.39002 -1.963094,0.39002 h -2.158103 q -0.377018,0 -0.62403,-0.27301 -0.247012,-0.28602 -0.247012,-0.59803 z"
               style="font-style:normal;font-variant:normal;font-weight:normal;font-stretch:normal;font-size:13.0006218px;line-height:131.3000083%;font-family:'Belgicka Molenbeek 5th';-inkscape-font-specification:'Belgicka Molenbeek 5th';letter-spacing:3.26197433px;word-spacing:0px;fill:#000000;fill-opacity:1;stroke:none;stroke-width:0.44320303px;stroke-linecap:butt;stroke-linejoin:miter;stroke-opacity:1"
               id="path4578" />
          </g>
          <g
             style="fill:#000000"
             id="g4628">
            <path
               d="m -25.282875,-177.0435 q 0.156007,-0.065 0.325015,-0.065 0.260013,0 0.481023,0.14301 0.221011,0.143 0.325016,0.39002 0.091,0.23401 0.260012,0.40302 0.377018,0.37701 0.923044,0.37701 0.520025,0 0.884043,-0.37701 0.377018,-0.37702 0.377018,-0.91005 0,-0.59803 -0.40302,-0.89704 l -2.431116,-1.76809 q -0.494023,-0.36401 -0.793038,-0.92304 -0.286013,-0.57203 -0.286013,-1.17006 0,-1.09205 0.767036,-1.85908 0.767037,-0.76704 1.846089,-0.76704 1.079051,0 1.846088,0.75404 0.364017,0.35101 0.572027,0.81903 0.065,0.16901 0.065,0.33802 0,0.26001 -0.143006,0.48102 -0.143007,0.22101 -0.377019,0.32502 -0.169008,0.065 -0.338016,0.065 -0.260012,0 -0.481023,-0.143 -0.22101,-0.14301 -0.325015,-0.37702 -0.052,-0.14301 -0.182009,-0.26002 -0.260012,-0.27301 -0.63703,-0.27301 -0.364018,0 -0.62403,0.26001 -0.260013,0.26002 -0.260013,0.63703 0,0.11701 0.130007,0.36402 0.130006,0.24701 0.234011,0.32502 l 2.431116,1.76808 q 0.585028,0.41602 0.858041,1.04005 0.273013,0.61103 0.273013,1.26106 0,1.24806 -0.884042,2.1321 -0.871042,0.88405 -2.119102,0.88405 -1.26106,0 -2.145102,-0.88405 -0.41602,-0.41602 -0.637031,-0.96204 -0.065,-0.15601 -0.065,-0.32502 0,-0.26001 0.143007,-0.48102 0.143007,-0.22101 0.390019,-0.32502 z"
               style="font-style:normal;font-variant:normal;font-weight:normal;font-stretch:normal;font-size:13.0006218px;line-height:131.3000083%;font-family:'Belgicka Molenbeek 5th';-inkscape-font-specification:'Belgicka Molenbeek 5th';letter-spacing:3.26197433px;word-spacing:0px;fill:#000000;fill-opacity:1;stroke:none;stroke-width:0.44320303px;stroke-linecap:butt;stroke-linejoin:miter;stroke-opacity:1"
               id="path4580" />
            <path
               d="m -15.458837,-182.98478 q -0.247012,-0.26001 -0.247012,-0.61103 0,-0.36402 0.247012,-0.61103 0.260012,-0.26001 0.62403,-0.26001 h 3.458165 3.4711661 q 0.3510168,0 0.6110292,0.26001 0.2600125,0.24701 0.2600125,0.61103 0,0.35102 -0.2600125,0.61103 -0.2600124,0.24701 -0.6110292,0.24701 H -10.5056 v 7.80037 q 0,0.36402 -0.260013,0.62403 -0.247012,0.24702 -0.611029,0.24702 -0.351017,0 -0.611029,-0.24702 -0.247012,-0.26001 -0.247012,-0.62403 v -7.80037 h -2.600124 q -0.364018,0 -0.62403,-0.24701 z"
               style="font-style:normal;font-variant:normal;font-weight:normal;font-stretch:normal;font-size:13.0006218px;line-height:131.3000083%;font-family:'Belgicka Molenbeek 5th';-inkscape-font-specification:'Belgicka Molenbeek 5th';letter-spacing:3.26197433px;word-spacing:0px;fill:#000000;fill-opacity:1;stroke:none;stroke-width:0.44320303px;stroke-linecap:butt;stroke-linejoin:miter;stroke-opacity:1"
               id="path4582" />
            <path
               d="M -0.10912807,-178.74658 H 1.4249453 q -0.46802239,-1.32606 -0.76703669,-2.2101 z m 1.57307527,-5.14824 q 0.4160199,1.18305 3.0291448,8.67141 0.052003,0.14301 0.052003,0.28601 0,0.27302 -0.1690081,0.50703 -0.1560074,0.22101 -0.4160199,0.31201 -0.1300062,0.052 -0.273013,0.052 -0.2730131,0 -0.5070243,-0.15601 -0.2340112,-0.15601 -0.3250155,-0.42902 -0.2210106,-0.65003 -0.8190392,-2.36611 h -2.7561318 l -0.8190392,2.36611 q -0.091004,0.26001 -0.3250155,0.42902 -0.2210106,0.15601 -0.4940236,0.15601 -0.1430069,0 -0.2860137,-0.052 -0.2600125,-0.091 -0.4290205,-0.31201 -0.1560075,-0.23401 -0.1560075,-0.50703 0,-0.143 0.052002,-0.28601 l 3.01614424,-8.65841 q 0.09100435,-0.26002 0.31201492,-0.41602 0.23401119,-0.16901 0.50702425,-0.16901 0.27301306,0 0.49402359,0.15601 0.2340112,0.156 0.312015,0.41602 z"
               style="font-style:normal;font-variant:normal;font-weight:normal;font-stretch:normal;font-size:13.0006218px;line-height:131.3000083%;font-family:'Belgicka Molenbeek 5th';-inkscape-font-specification:'Belgicka Molenbeek 5th';letter-spacing:3.26197433px;word-spacing:0px;fill:#000000;fill-opacity:1;stroke:none;stroke-width:0.44320303px;stroke-linecap:butt;stroke-linejoin:miter;stroke-opacity:1"
               id="path4584" />
            <path
               d="m 14.487155,-178.38256 q -0.247012,-0.26001 -0.247012,-0.61103 0,-0.35102 0.247012,-0.61103 0.260012,-0.26001 0.611029,-0.26001 h 2.405115 q 0.364017,0 0.611029,0.28601 0.247012,0.27302 0.247012,0.58503 v 2.79513 q 0,0.35102 -0.247012,0.61103 -0.754036,0.74104 -1.716082,1.13106 -0.949045,0.39002 -1.963094,0.39002 -1.014048,0 -1.976094,-0.39002 -0.962046,-0.39002 -1.716082,-1.13106 -0.741036,-0.74103 -1.1310546,-1.70308 -0.377018,-0.96204 -0.377018,-1.97609 0,-1.01405 0.377018,-1.9761 0.3900186,-0.96204 1.1310546,-1.70308 0.754036,-0.74103 1.703081,-1.13105 0.962046,-0.39002 1.976095,-0.39002 1.014048,0 1.963093,0.39002 0.962046,0.37702 1.716082,1.11805 0.247012,0.24701 0.247012,0.61103 0,0.36402 -0.247012,0.62403 -0.247011,0.24701 -0.611029,0.24701 -0.364017,0 -0.611029,-0.24701 -1.014048,-1.01405 -2.457117,-1.01405 -1.430069,0 -2.444117,1.01405 -1.014049,1.01405 -1.014049,2.45712 0,1.44307 1.014049,2.45712 1.014048,1.01404 2.457117,1.01404 1.235059,0 2.197105,-0.79303 v -1.53408 h -1.534073 q -0.351017,0 -0.611029,-0.26001 z"
               style="font-style:normal;font-variant:normal;font-weight:normal;font-stretch:normal;font-size:13.0006218px;line-height:131.3000083%;font-family:'Belgicka Molenbeek 5th';-inkscape-font-specification:'Belgicka Molenbeek 5th';letter-spacing:3.26197433px;word-spacing:0px;fill:#000000;fill-opacity:1;stroke:none;stroke-width:0.44320303px;stroke-linecap:butt;stroke-linejoin:miter;stroke-opacity:1"
               id="path4586" />
            <path
               d="m 30.363996,-184.20684 q 0.260013,0.24701 0.260013,0.61103 0,0.35102 -0.260013,0.61103 -0.247011,0.24701 -0.611029,0.24701 h -3.900186 v 2.60013 h 3.042145 q 0.351017,0 0.598029,0.26001 0.260012,0.26001 0.260012,0.61103 0,0.35101 -0.260012,0.61103 -0.247012,0.26001 -0.598029,0.26001 h -3.042145 v 2.60012 h 3.900186 q 0.364018,0 0.611029,0.26002 0.260013,0.24701 0.260013,0.61103 0,0.35101 -0.260013,0.61102 -0.247011,0.24702 -0.611029,0.24702 H 24.99474 q -0.312015,0 -0.598029,-0.24702 -0.273013,-0.24701 -0.273013,-0.62403 v -4.3292 -4.32921 q 0,-0.31201 0.247012,-0.58503 0.247012,-0.28601 0.62403,-0.28601 h 4.758227 q 0.364018,0 0.611029,0.26001 z"
               style="font-style:normal;font-variant:normal;font-weight:normal;font-stretch:normal;font-size:13.0006218px;line-height:131.3000083%;font-family:'Belgicka Molenbeek 5th';-inkscape-font-specification:'Belgicka Molenbeek 5th';letter-spacing:3.26197433px;word-spacing:0px;fill:#000000;fill-opacity:1;stroke:none;stroke-width:0.44320303px;stroke-linecap:butt;stroke-linejoin:miter;stroke-opacity:1"
               id="path4588" />
            <path
               d="m 36.173687,-177.0435 q 0.156007,-0.065 0.325015,-0.065 0.260013,0 0.481023,0.14301 0.221011,0.143 0.325016,0.39002 0.091,0.23401 0.260012,0.40302 0.377018,0.37701 0.923044,0.37701 0.520025,0 0.884043,-0.37701 0.377018,-0.37702 0.377018,-0.91005 0,-0.59803 -0.403019,-0.89704 l -2.431117,-1.76809 q -0.494023,-0.36401 -0.793038,-0.92304 -0.286013,-0.57203 -0.286013,-1.17006 0,-1.09205 0.767036,-1.85908 0.767037,-0.76704 1.846089,-0.76704 1.079051,0 1.846088,0.75404 0.364017,0.35101 0.572027,0.81903 0.065,0.16901 0.065,0.33802 0,0.26001 -0.143006,0.48102 -0.143007,0.22101 -0.377018,0.32502 -0.169009,0.065 -0.338017,0.065 -0.260012,0 -0.481023,-0.143 -0.22101,-0.14301 -0.325015,-0.37702 -0.052,-0.14301 -0.182009,-0.26002 -0.260012,-0.27301 -0.63703,-0.27301 -0.364018,0 -0.62403,0.26001 -0.260013,0.26002 -0.260013,0.63703 0,0.11701 0.130007,0.36402 0.130006,0.24701 0.234011,0.32502 l 2.431116,1.76808 q 0.585028,0.41602 0.858041,1.04005 0.273013,0.61103 0.273013,1.26106 0,1.24806 -0.884042,2.1321 -0.871042,0.88405 -2.119102,0.88405 -1.26106,0 -2.145102,-0.88405 -0.41602,-0.41602 -0.637031,-0.96204 -0.065,-0.15601 -0.065,-0.32502 0,-0.26001 0.143007,-0.48102 0.143007,-0.22101 0.390019,-0.32502 z"
               style="font-style:normal;font-variant:normal;font-weight:normal;font-stretch:normal;font-size:13.0006218px;line-height:131.3000083%;font-family:'Belgicka Molenbeek 5th';-inkscape-font-specification:'Belgicka Molenbeek 5th';letter-spacing:3.26197433px;word-spacing:0px;fill:#000000;fill-opacity:1;stroke:none;stroke-width:0.44320303px;stroke-linecap:butt;stroke-linejoin:miter;stroke-opacity:1"
               id="path4590" />
          </g>
        </g>
      </g>
    </g>
  </g>
</svg>
